###  /n/ghernquist/Illustris/Runs/L75n1820FP/output/
###  snapnum, shindex, D_KPC, x_0, y_0, z_0, x_new, y_new, z_new, Mstar, Mhalo, Zgas, Zstar, SFR, Bband, t_num, t_den, groupM200, isneargroup, mingroupdist, massive10Mpc, massive3Mpc, rband 
102                430729       555.92323       63727.281       53278.316       65867.266       63727.281       53278.316       65867.266     0.211498      17.0738   0.00579605   0.00713342     0.937662     -19.4728   4.8613986e+09   5.7277376e+09      17.4479           0       14373.383      149.854      73.0546     -19.9657
102                430730       628.03042       63654.215       53218.004       65805.469       63654.215       53218.004       65805.469  0.000182392     0.319934  0.000344572      0.00000      0.00000     -11.5893   4.8550439e+09   5.7277376e+09      17.4479           0       14366.201      149.854      73.0546     -12.1708
102                430732       588.76953       63699.090       53241.562       65844.453       63699.090       53241.562       65844.453   0.00191179    0.0892464   0.00145491      0.00000      0.00000     -13.2336   4.8588626e+09   5.7277376e+09      17.4479           0       14376.861      149.854      73.0546     -14.0975
102                430734       554.29848       63736.914       53270.641       65874.195       63736.914       53270.641       65874.195   0.00214161    0.0568581   0.00350481      0.00000      0.00000     -14.5499   4.8621207e+09   5.7277376e+09      17.4479           0       14379.639      149.854      73.0546     -15.0123
102                450211       734.87678       4117.1245       47774.988       59746.516       4117.1245       47774.988       59746.516   0.00180167     0.841034  0.000871467  0.000980584    0.0141165     -13.6522   3.0720854e+08   5.7277376e+09      11.1570           0       14469.771      3401.30      73.0546     -14.3797
102                450212       741.04717       4115.1895       47787.863       59733.309       4115.1895       47787.863       59733.309  0.000758493     0.185595  0.000455936  0.000473496   0.00680161     -12.5769   3.0705214e+08   5.7277376e+09      11.1570           0       14456.333      3401.30      73.0546     -13.2950
102                477331       739.75178       9684.0938       49350.375       60985.469       9684.0938       49350.375       60985.469     0.170225      10.9726    0.0103387   0.00242004    0.0981027     -19.0535   7.4476465e+08   5.7277376e+09      11.4680           0       13760.038      3249.69      73.0546     -19.7324
102                504812       241.57791       72990.000       54131.934       67371.656       72990.000       54131.934       67371.656    0.0692929      7.40770   0.00478936   0.00560130     0.390986     -18.5015   5.5732056e+09   5.7277376e+09      7.38586           0       15629.386      213.674      83.8980     -18.9451
102                515100       543.09838       62340.445       52974.520       65882.211       62340.445       52974.520       65882.211    0.0791910      6.68515   0.00571094   0.00311028     0.406693     -18.3190   4.7554267e+09   5.7277376e+09      6.88500           0       14976.029      149.854      73.0546     -18.8720
102                515101       509.48690       62345.453       52987.266       65921.680       62345.453       52987.266       65921.680  0.000609816    0.0992843   0.00105377  3.91188e-05  0.000686356     -11.9644   4.7561852e+09   5.7277376e+09      6.88500           0       15001.842      149.854      73.0546     -12.7793
102                515974       758.91395       22014.010       49475.316       62918.445       22014.010       49475.316       62918.445    0.0162577      6.60624   0.00197781  0.000306914    0.0504582     -17.0092   1.6848576e+09   5.7277376e+09      7.15642           0       14126.070      1044.65      73.0546     -17.5156
102                515975       775.67988       22031.070       49498.645       62945.324       22031.070       49498.645       62945.324   0.00440665     0.359080   0.00135325   0.00267292    0.0265552     -16.1209   1.6864977e+09   5.7277376e+09      7.15642           0       14154.115      1044.65      73.0546     -16.2501
102                534574       615.45790       62016.992       52796.969       65953.367       62016.992       52796.969       65953.367    0.0251632      5.05164   0.00256042   0.00178852     0.335390     -17.7214   4.7304908e+09   5.7277376e+09      5.67265           0       15231.749      223.473      73.0546     -18.0870
102                534575       592.19436       62007.473       52815.895       65965.773       62007.473       52815.895       65965.773   0.00189479     0.197709   0.00113182   0.00469459   0.00663316     -13.7191   4.7299989e+09   5.7277376e+09      5.67265           0       15237.904      223.473      73.0546     -14.3577
102                534577       624.03220       62012.504       52790.195       65945.875       62012.504       52790.195       65945.875  0.000258791    0.0231854      0.00000   0.00322538      0.00000     -10.9593   4.7300518e+09   5.7277376e+09      5.67265           0       15230.133      223.473      73.0546     -11.7919
102                551573       587.92099       59221.727       53419.637       66428.648       59221.727       53419.637       66428.648    0.0150687      4.11584   0.00198686   0.00235993    0.0417382     -16.8429   4.5286559e+09   5.7277376e+09      4.15428           0       16668.458      113.705      73.0546     -17.2785
102                551574       592.77527       59219.480       53448.969       66415.266       59219.480       53448.969       66415.266  0.000970333     0.263988   0.00128340  0.000117086    0.0104020     -13.9617   4.5285871e+09   5.7277376e+09      4.15428           0       16649.264      113.705      73.0546     -14.3181
102                579696       466.17879       63300.426       53200.160       65953.344       63300.426       53200.160       65953.344    0.0130876      3.26187   0.00170994   0.00202618     0.175345     -16.9941   4.8294972e+09   5.7277376e+09      3.25198           0       14610.416      149.854      73.0546     -17.3476
102                580548       503.68976       20137.027       49644.430       62513.203       20137.027       49644.430       62513.203    0.0288608      3.20994   0.00401259   0.00551033     0.192597     -17.6909   1.5421976e+09   5.7277376e+09      3.38432           0       13761.912      1044.65      216.953     -18.1372
102                598584       511.81682       32228.408       50977.559       62823.598       32228.408       50977.559       62823.598    0.0100909      2.90833   0.00141725   0.00168082    0.0680725     -16.6868   2.4604686e+09   5.7277376e+09      2.92240           0       17826.956      714.551      73.0546     -17.0048
102                599226       405.15778       9605.3311       48893.734       61245.391       9605.3311       48893.734       61245.391    0.0138640      2.72222   0.00226732   0.00217212    0.0777344     -16.9498   7.3769341e+08   5.7277376e+09      2.77674           0       14091.818      3249.69      73.0546     -17.3879
102                600007       662.97142       17616.482       49955.938       61990.703       17616.482       49955.938       61990.703   0.00510409      1.55686   0.00129156   0.00299734    0.0257811     -15.1588   1.3513619e+09   5.7277376e+09      1.62477           0       13715.900      3249.69      296.067     -15.7077
102                600008       576.53149       17606.832       49881.973       61933.543       17606.832       49881.973       61933.543  0.000456527     0.831534  0.000274872   0.00217824   0.00564624     -13.4784   1.3497051e+09   5.7277376e+09      1.62477           0       13660.018      3249.69      296.067     -13.6814
102                603607       799.64605       58889.668       53490.551       66583.797       58889.668       53490.551       66583.797   0.00890209      2.52767   0.00127703   0.00130497    0.0340744     -15.8416   4.5053987e+09   5.7277376e+09      2.60594           0       16941.811      113.705      73.0546     -16.4035
102                615474       786.62859       16735.393       49021.984       60914.230       16735.393       49021.984       60914.230    0.0112230      2.22771   0.00174220   0.00198568    0.0823016     -16.1876   1.2708388e+09   5.7277376e+09      2.29035           0       12954.372      1044.65      296.067     -16.6900
102                622838       824.75148       17146.670       49512.480       62513.961       17146.670       49512.480       62513.961    0.0104382      2.07935   0.00214183  0.000334125    0.0754257     -16.2318   1.3170268e+09   5.7277376e+09      2.19184           0       14334.997      3249.69      296.067     -16.7096
102                625597       203.74383       60912.941       53450.180       66006.328       60912.941       53450.180       66006.328   0.00534340      2.06616   0.00135307   0.00139006    0.0382775     -15.3140   4.6525379e+09   5.7277376e+09      1.95213           0       15489.936      149.854      73.0546     -15.8503
102                627099       383.57835       36486.523       50659.078       63642.562       36486.523       50659.078       63642.562    0.0100065      2.11968   0.00207894   0.00248874    0.0620294     -16.0459   2.7837981e+09   5.7277376e+09      2.15001           0       16026.297      137.470      70.9805     -16.6101
102                636228       330.81952       63365.895       53174.816       66445.133       63365.895       53174.816       66445.133   0.00180895      1.92185  0.000755697   0.00104676    0.0119697     -15.0113   4.8379229e+09   5.7277376e+09      1.86955           0       15024.197      118.760      73.0546     -15.2834
102                672951       682.63411       21019.877       49042.367       61757.430       21019.877       49042.367       61757.430   0.00319533      1.35089  0.000842954  0.000925726    0.0134292     -14.9116   1.5986380e+09   5.7277376e+09      1.33416           0       12953.289      1044.65      73.0546     -15.4151
102                673182       108.44110       17158.383       49343.539       61809.559       17158.383       49343.539       61809.559   0.00842418      1.35666   0.00284185   0.00292277    0.0167029     -15.6251   1.3114704e+09   5.7277376e+09      1.39043           0       13657.422      3249.69      296.067     -16.2562
102                679795       650.77794       19653.350       49807.727       61383.809       19653.350       49807.727       61383.809   0.00142864      1.39699  0.000524242  0.000748767   0.00393486     -14.2447   1.4985647e+09   5.7277376e+09      1.36369           0       12699.193      1044.65      73.0546     -14.6719
102                688711       600.10045       9625.1992       49183.906       61125.438       9625.1992       49183.906       61125.438   0.00224118      1.04469  0.000761357  0.000173447    0.0160732     -14.5715   7.4026232e+08   5.7277376e+09      1.10316           0       13926.689      3249.69      73.0546     -14.9894
102                694715       840.99140       32203.535       51476.051       63424.816       32203.535       51476.051       63424.816   0.00133846      1.28143  0.000727385  0.000316816    0.0123676     -14.6467   2.4665111e+09   5.7277376e+09      1.20995           0       18342.246      714.551      73.0546     -14.9316
102                696045       606.12694       59818.191       53369.316       66557.539       59818.191       53369.316       66557.539   0.00114865      1.02935  0.000849307  0.000995354   0.00320592     -13.8885   4.5740144e+09   5.7277376e+09      1.21479           0       16483.154      113.705      73.0546     -14.3097
102                708111       753.94092       4765.3496       48129.055       59719.234       4765.3496       48129.055       59719.234   0.00231396     0.983995  0.000736173  0.000505034   0.00358278     -13.9252   3.5803490e+08   5.7277376e+09     0.995041           0       14074.694      3401.30      73.0546     -14.5676
102                710127       630.18751       32167.635       50977.762       63762.402       32167.635       50977.762       63762.402   0.00100483      1.12525  0.000534985  0.000698554   0.00154093     -14.3207   2.4629531e+09   5.7277376e+09      1.09564           0       18538.484      714.551      73.0546     -14.5377
102                717070       826.44302       62097.062       54195.344       66324.523       62097.062       54195.344       66324.523   0.00184818      1.05162  0.000981294      0.00000   0.00248290     -13.8409   4.7488141e+09   5.7277376e+09      1.04695           0       14996.904      113.705      73.0546     -14.4209
102                735293       464.83344       72636.797       54791.367       67342.500       72636.797       54791.367       67342.500  0.000165845     0.883968  0.000311572  0.000338431   0.00230070     -11.1980   5.5509928e+09   5.7277376e+09     0.869381           0       15295.937      348.969      83.8980     -11.8639
102                739632       706.38952       20638.004       49673.551       61358.023       20638.004       49673.551       61358.023  0.000449935     0.611290  0.000516050  0.000537221  0.000659808     -12.1148   1.5713055e+09   5.7277376e+09     0.556283           0       12574.954      1044.65      73.0546     -12.7294
102                741416       712.03590       68319.914       53281.098       66543.992       68319.914       53281.098       66543.992  0.000524019     0.919512  0.000346916  0.000913614   0.00237049     -12.5834   5.2109405e+09   5.7277376e+09     0.800798           0       14351.117      182.646      73.0546     -13.1348
102                741861       794.37426       21711.605       50481.270       62344.195       21711.605       50481.270       62344.195  0.000313150     0.894577  0.000273285  0.000399436   0.00266809     -11.0719   1.6647291e+09   5.7277376e+09     0.877341           0       13594.675      1044.65      73.0546     -11.8468
102                748410       740.52267       18028.383       48903.844       62381.484       18028.383       48903.844       62381.484  0.000594315     0.876437  0.000423146  0.000307487  0.000754581     -12.1949   1.3780119e+09   5.7277376e+09     0.876220           0       13975.302      3249.69      296.067     -12.9548
102                751355       584.01159       64656.508       53614.684       65878.914       64656.508       53614.684       65878.914  0.000820932     0.773787  0.000691628  0.000355982      0.00000     -13.3553   4.9334714e+09   5.7277376e+09     0.753759           0       14002.530      149.854      73.0546     -13.8680
102                752271       325.06053       65076.422       53571.258       66188.383       65076.422       53571.258       66188.383  0.000505315     0.803328  0.000335206  0.000215316   0.00534355     -13.1060   4.9669899e+09   5.7277376e+09     0.774662           0       14203.710      149.854      73.0546     -13.4099
102                755507       461.40678       33966.844       51167.156       63098.348       33966.844       51167.156       63098.348  0.000517460     0.781709  0.000472091  0.000514226   0.00636765     -11.9684   2.5942046e+09   5.7277376e+09     0.730579           0       17898.098      714.551      70.9805     -12.7545
102                766136       685.17779       17826.100       50035.395       61764.301       17826.100       50035.395       61764.301  0.000364837     0.682496  0.000347237  0.000305652   0.00498115     -12.7752   1.3659269e+09   5.7277376e+09     0.671063           0       13446.467      3249.69      296.067     -13.0789
102                771684       435.57865       34402.496       50419.324       63395.281       34402.496       50419.324       63395.281  0.000525048     0.705007  0.000502126  0.000226720  0.000534228     -12.2588   2.6240067e+09   5.7277376e+09     0.672578           0       16994.669      714.551      70.9805     -12.9769
102                778178       796.83746       68096.539       53120.371       66867.305       68096.539       53120.371       66867.305  0.000166732     0.697598  0.000270869  0.000292233  0.000776693     -12.3076   5.1955163e+09   5.7277376e+09     0.677246           0       14708.148      182.646      73.0546     -12.6289
102                779493       433.68798       18536.744       48991.934       61736.559       18536.744       48991.934       61736.559  0.000430753     0.675385  0.000532782  0.000570089   0.00142152     -11.8856   1.4119027e+09   5.7277376e+09     0.599505           0       13230.726      1044.65      296.067     -12.6700
102                781726       703.20012       4970.4888       47947.391       59827.426       4970.4888       47947.391       59827.426  0.000370744     0.361638  0.000378598  0.000393569   0.00123712     -11.4416   3.7299316e+08   5.7277376e+09     0.344233           0       14124.000      3401.30      73.0546     -12.1916
102                796553       547.02685       62460.840       52892.250       66437.203       62460.840       52892.250       66437.203  0.000148706     0.615641  0.000178085  0.000176904   0.00138310     -11.1259   4.7680578e+09   5.7277376e+09     0.576323           0       15430.260      113.705      73.0546     -11.5396
102                806569       834.06019       60581.766       52745.270       65373.605       60581.766       52745.270       65373.605  0.000392612     0.562093  0.000336717  5.16541e-05      0.00000     -11.5867   4.6181481e+09   5.7277376e+09     0.550794           0       15414.854      223.473      73.0546     -12.3272
102                808086       342.95795       21873.029       49408.488       62340.207       21873.029       49408.488       62340.207  0.000382577     0.517138  0.000377659  0.000153348   0.00120053     -11.5419   1.6694916e+09   5.7277376e+09     0.525704           0       13541.427      1044.65      73.0546     -12.2875
102                808929       282.69540       23303.271       49926.980       62603.273       23303.271       49926.980       62603.273  0.000193080     0.578948  0.000327108  6.09208e-05      0.00000     -10.8331   1.7822679e+09   5.7277376e+09     0.526730           0       13947.861      1044.65      73.0546     -11.6129
102                814003       187.02175       20379.166       49459.348       62180.918       20379.166       49459.348       62180.918  0.000928605     0.468329  0.000728675  0.000286441   0.00260152     -12.5362   1.5566039e+09   5.7277376e+09     0.486776           0       13407.363      1044.65      73.0546     -13.3176
102                829474       797.06767       16761.750       48471.820       61486.406       16761.750       48471.820       61486.406  0.000331183     0.440105  0.000295194  0.000317791   0.00205072     -11.5965   1.2733558e+09   5.7277376e+09     0.454530           0       13502.252      3249.69      296.067     -12.3277
102                830358       275.64763       65439.852       53425.453       66424.750       65439.852       53425.453       66424.750  0.000172574     0.534068  0.000427020  0.000421013  0.000544149     -11.1387   4.9950257e+09   5.7277376e+09     0.484411           0       14404.502      147.465      73.0546     -11.8656
102                832948       767.03701       4421.9312       47569.613       59907.566       4421.9312       47569.613       59907.566  0.000158126     0.492712  0.000210011  0.000103084  0.000588237     -10.6894   3.2987663e+08   5.7277376e+09     0.463022           0       14520.267      3401.30      73.0546     -11.3821
102                842981       820.87540       5005.6484       48073.836       59681.828       5005.6484       48073.836       59681.828  0.000264209     0.384523  0.000304121      0.00000      0.00000     -13.1144   3.7540027e+08   5.7277376e+09     0.380425           0       13952.258      3401.30      73.0546     -13.1933
102                844024       473.11868       21844.707       49440.195       62571.152       21844.707       49440.195       62571.152  0.000319383     0.431988  0.000548412  0.000223891      0.00000     -11.9596   1.6693157e+09   5.7277376e+09     0.414981           0       13771.519      1044.65      73.0546     -12.5685
102                862179       813.17413       5677.6001       47788.504       59885.039       5677.6001       47788.504       59885.039  0.000210763     0.367304  0.000202147  0.000207958   0.00108668     -11.0403   4.2537529e+08   5.7277376e+09     0.371628           0       13935.705      3401.30      73.0546     -11.7362
102                869291       667.04141       59455.695       53493.805       66513.172       59455.695       53493.805       66513.172  0.000204069     0.393602  0.000394754      0.00000      0.00000     -11.2682   4.5473432e+09   5.7277376e+09     0.380286           0       16588.259      113.705      73.0546     -11.9282
102                874831       763.10950       62977.125       54204.484       66451.641       62977.125       54204.484       66451.641  0.000226767     0.389298  0.000101123      0.00000      0.00000     -10.7036   4.8158345e+09   5.7277376e+09     0.356069           0       14783.298      113.705      73.0546     -11.4488
102               1050697       703.27404       16817.428       48888.832       62282.062       16817.428       48888.832       62282.062  0.000119051     0.190097  0.000207741      0.00000      0.00000     -10.5600   1.2863423e+09   5.7277376e+09     0.187024           0       14217.243      3249.69      296.067     -11.3240
