###  /n/ghernquist/Illustris/Runs/L75n1820FP/output/
###  snapnum, shindex, D_KPC, x_0, y_0, z_0, x_new, y_new, z_new, Mstar, Mhalo, Zgas, Zstar, SFR, Bband, t_num, t_den, groupM200, isneargroup, mingroupdist, massive10Mpc, massive3Mpc, rband 
101                291191       726.22287       1359.8158       54621.277       66907.305       1359.8158       54621.277       66907.305      2.03804      81.0653    0.0189816  0.000248696      19.6409     -22.4121       98057944.   5.7277376e+09      101.480           0       21944.477      806.478      101.480     -22.7932
101                291192       730.41820       1409.9055       54776.121       66915.086       1409.9055       54776.121       66915.086     0.430413      11.8509    0.0123295   0.00204818      2.26921     -20.5111   1.0292879e+08   5.7277376e+09      101.480           0       21954.026      806.478      101.480     -20.9969
101                291193       710.75669       1545.8359       54626.844       66942.234       1545.8359       54626.844       66942.234    0.0119981      1.99814   0.00170379  0.000224814     0.105748     -16.2961   1.1230938e+08   5.7277376e+09      101.480           0       21897.016      806.478      101.480     -16.8482
101                291194       833.33160       1268.5839       54781.070       66799.188       1268.5839       54781.070       66799.188   0.00758590      1.42748   0.00182911  0.000194558    0.0267921     -15.4454       91494167.   5.7277376e+09      101.480           0       21912.992      806.478      101.480     -16.1020
101                291195       873.29142       1564.8967       54518.316       66793.883       1564.8967       54518.316       66793.883   0.00219542      1.10545  0.000625739  0.000586807    0.0216828     -14.7449   1.1188634e+08   5.7277376e+09      101.480           0       21740.082      806.478      101.480     -15.1976
101                291196       814.89259       1668.6082       54654.176       66848.680       1668.6082       54654.176       66848.680   0.00311366     0.988468  0.000793290  0.000407258   0.00871345     -16.0841   1.2100199e+08   5.7277376e+09      101.480           0       21765.859      806.478      101.480     -16.1017
101                291198       619.93402       1257.3461       54626.230       67003.336       1257.3461       54626.230       67003.336   0.00577109     0.547536   0.00149658   0.00132323    0.0203661     -15.8559       91126720.   5.7277376e+09      101.480           0       22074.858      806.478      101.480     -16.2719
101                291199       825.12936       1302.1393       54699.809       66802.109       1302.1393       54699.809       66802.109   0.00634395     0.351720   0.00542187   0.00110513      0.00000     -15.4775       93478681.   5.7277376e+09      101.480           0       21888.126      806.478      101.480     -16.0741
101                291200       768.54689       1273.6683       54665.641       66855.070       1273.6683       54665.641       66855.070   0.00258394     0.228354   0.00293275   0.00157334      0.00000     -13.6962       91507603.   5.7277376e+09      101.480           0       21942.170      806.478      101.480     -14.5042
101                291201       515.12655       1287.9084       54617.156       67112.703       1287.9084       54617.156       67112.703   0.00133877     0.103497   0.00169775   0.00121526      0.00000     -13.4783       94177283.   5.7277376e+09      101.480           0       22157.567      806.478      101.480     -14.2656
101                291210       787.70164       1371.5568       54580.480       66849.852       1371.5568       54580.480       66849.852  0.000483387    0.0545723      0.00000   0.00435082      0.00000     -12.7912       98229457.   5.7277376e+09      101.480           0       21882.124      806.478      101.480     -13.4961
101                291211       575.77522       1267.8088       54602.527       67050.570       1267.8088       54602.527       67050.570  0.000523167    0.0432901      0.00000   0.00168526      0.00000     -11.8816       92104073.   5.7277376e+09      101.480           0       22108.741      806.478      101.480     -12.6962
101                337769       860.97442       14355.490       56502.504       69509.602       14355.490       56502.504       69509.602     0.325173      7.18118    0.0164576    0.0198701     0.926274     -19.5189   1.1050773e+09   5.7277376e+09      35.9289           0       23004.374      3181.85      127.764     -20.1395
101                337773       818.08418       14269.518       56421.113       69515.922       14269.518       56421.113       69515.922   0.00208201     0.224890   0.00230435      0.00000      0.00000     -13.7774   1.0981218e+09   5.7277376e+09      35.9289           0       22979.017      3181.85      127.764     -14.5144
101                337775       837.80083       14361.586       56486.086       69494.102       14361.586       56486.086       69494.102  0.000938274    0.0802996      0.00000      0.00000      0.00000     -12.2903   1.1053063e+09   5.7277376e+09      35.9289           0       22986.683      3181.85      127.764     -13.1353
101                337777       840.99855       14318.187       56406.738       69569.789       14318.187       56406.738       69569.789  0.000258215    0.0522840      0.00000      0.00000      0.00000     -11.3039   1.1020780e+09   5.7277376e+09      35.9289           0       23035.038      3181.85      127.764     -12.0167
101                423204       154.05344       14449.104       55811.918       69091.953       14449.104       55811.918       69091.953     0.492513      20.9213    0.0175378    0.0213038      1.32187     -19.9827   1.1042575e+09   5.7277376e+09      21.1298           0       22422.321      3181.85      3181.85     -20.5917
101                423205       282.48707       14519.534       55807.859       69229.414       14519.534       55807.859       69229.414  0.000114154     0.208658      0.00000      0.00000      0.00000     -9.71258   1.1105430e+09   5.7277376e+09      21.1298           0       22524.019      3181.85      3181.85     -10.4883
101                423206       62.323671       14437.846       55821.332       68994.219       14437.846       55821.332       68994.219  0.000241172    0.0741105      0.00000      0.00000      0.00000     -11.7821   1.1027442e+09   5.7277376e+09      21.1298           0       22340.156      3181.85      3181.85     -12.5370
101                423207       218.32006       14496.304       55865.605       69169.039       14496.304       55865.605       69169.039  0.000631082    0.0547874      0.00000      0.00000      0.00000     -12.8047   1.1087416e+09   5.7277376e+09      21.1298           0       22493.203      3181.85      3181.85     -13.5689
101                433963       768.36236       65274.125       61204.141       73768.953       65274.125       61204.141       73768.953     0.196262      12.6267   0.00762827   0.00985110     0.415918     -19.2477   4.9879767e+09   5.7277376e+09      12.1704           0       20648.258      147.366      71.6854     -19.8170
101                433964       798.25483       65305.434       61182.500       73646.391       65305.434       61182.500       73646.391    0.0373568      2.94583   0.00367813   0.00522074     0.280888     -17.7248   4.9892580e+09   5.7277376e+09      12.1704           0       20521.125      147.366      71.6854     -18.1949
101                433965       840.94915       65177.344       61271.926       73758.234       65177.344       61271.926       73758.234  0.000213638     0.330692  0.000254036  0.000237622   0.00123330     -12.8566   4.9810998e+09   5.7277376e+09      12.1704           0       20657.432      147.366      71.6854     -13.0782
101                439111       815.73988       2904.1777       54021.605       67559.078       2904.1777       54021.605       67559.078     0.284792      12.7292   0.00795737    0.0106882      1.86534     -19.9848   2.1468472e+08   5.7277376e+09      13.1797           0       21839.390      806.478      101.480     -20.4285
101                439112       653.02779       2770.5706       54184.535       67537.977       2770.5706       54184.535       67537.977   0.00156053      1.23453  0.000692409  0.000643215    0.0108184     -14.6488   2.0561680e+08   5.7277376e+09      13.1797           0       21889.745      806.478      101.480     -14.9758
101                439113       788.99811       2988.2998       54038.070       67647.648       2988.2998       54038.070       67647.648   0.00142162     0.468575  0.000589330  0.000770392   0.00330777     -13.8346   2.2177041e+08   5.7277376e+09      13.1797           0       21893.076      806.478      101.480     -14.3273
101                456487       531.60156       66523.000       60132.176       73878.523       66523.000       60132.176       73878.523     0.154125      12.4062   0.00513911   0.00669049     0.586100     -19.1667   5.0751552e+09   5.7277376e+09      12.8561           0       20551.392      147.366      71.6854     -19.6897
101                456488       538.56964       66469.352       60149.637       73826.203       66469.352       60149.637       73826.203  0.000447861     0.163891  0.000531350  0.000490887  0.000450384     -14.7851   5.0708582e+09   5.7277376e+09      12.8561           0       20503.925      147.366      71.6854     -14.5192
101                456489       559.05436       66587.828       60115.633       73868.562       66587.828       60115.633       73868.562  0.000303677    0.0977856  0.000503728      0.00000      0.00000     -11.2785   5.0798298e+09   5.7277376e+09      12.8561           0       20536.278      147.366      71.6854     -12.1128
101                461321       578.24411       14100.644       55756.539       69486.195       14100.644       55756.539       69486.195    0.0921865      7.54344   0.00517989   0.00653704     0.394911     -18.7238   1.0807021e+09   5.7277376e+09      8.90837           0       22785.629      3181.85      3181.85     -19.2260
101                461322       694.22912       14143.634       55801.230       69611.109       14143.634       55801.230       69611.109   0.00519614      1.21340   0.00121507   0.00141860    0.0300649     -14.9220   1.0851680e+09   5.7277376e+09      8.90837           0       22921.780      3181.85      3181.85     -15.5471
101                461323       568.57008       14060.765       55842.109       69477.328       14060.765       55842.109       69477.328   0.00544420      1.09351   0.00133882   0.00180942   0.00633696     -15.5312   1.0782281e+09   5.7277376e+09      8.90837           0       22788.301      3181.85      3181.85     -16.0036
101                465545       720.60088       19930.061       56583.508       70182.906       19930.061       56583.508       70182.906     0.162772      10.5231   0.00812071   0.00845118     0.207306     -18.5239   1.5287722e+09   5.7277376e+09      11.5110           0       22642.995      3181.85      106.416     -19.2371
101                465546       654.81478       19932.256       56514.660       70133.617       19932.256       56514.660       70133.617  0.000795245     0.636108  0.000481159  0.000449243   0.00173620     -13.7196   1.5280977e+09   5.7277376e+09      11.5110           0       22574.180      3181.85      106.416     -14.0315
101                482595       834.54285       13232.801       55215.996       68170.859       13232.801       55215.996       68170.859    0.0829548      8.77413   0.00365716   0.00438833     0.356588     -18.4162   1.0020634e+09   5.7277376e+09      8.87324           0       21290.380      3181.85      3181.85     -18.9174
101                482597       771.26710       13154.043       55263.898       68200.781       13154.043       55263.898       68200.781  0.000733509     0.142594  0.000667927      0.00000      0.00000     -12.1430   9.9670756e+08   5.7277376e+09      8.87324           0       21319.707      3181.85      3181.85     -12.9521
101                490895       320.54944       15388.937       56265.605       69020.336       15388.937       56265.605       69020.336    0.0433776      6.08970   0.00301710  0.000385737     0.241660     -17.8267   1.1773011e+09   5.7277376e+09      6.07061           0       22221.474      3181.85      127.764     -18.2752
101                490896       405.35148       15286.937       56341.379       69058.203       15286.937       56341.379       69058.203    0.0124835      2.08136   0.00203224   0.00338407    0.0314313     -16.4661   1.1704517e+09   5.7277376e+09      6.07061           0       22307.553      3181.85      127.764     -16.9268
101                490897       294.87575       15385.272       56240.055       69031.680       15385.272       56240.055       69031.680   0.00108919    0.0995715  0.000968200   0.00301341  0.000599440     -13.0408   1.1769371e+09   5.7277376e+09      6.07061           0       22224.788      3181.85      127.764     -13.7770
101                515479       742.53584       23786.680       57452.699       69919.477       23786.680       57452.699       69919.477    0.0822396      6.29492   0.00693717   0.00848450     0.328966     -18.2573   1.8219692e+09   5.7277376e+09      6.86586           0       22769.571      1821.10      71.6854     -18.8414
101                545477       471.82059       14771.801       55901.754       69451.266       14771.801       55901.754       69451.266    0.0252669      4.22060   0.00245069   0.00326638     0.114512     -17.3066   1.1317670e+09   5.7277376e+09      4.39894           0       22677.521      3181.85      3181.85     -17.7928
101                545478       417.02119       14759.093       55901.906       69394.867       14759.093       55901.906       69394.867   0.00171167     0.329367   0.00101012   0.00169598  0.000342293     -14.1813   1.1303920e+09   5.7277376e+09      4.39894           0       22629.939      3181.85      3181.85     -14.7132
101                571014       806.08784       2052.8462       54324.371       67001.805       2052.8462       54324.371       67001.805    0.0336359      3.11014   0.00304957   0.00360682     0.160325     -17.5761   1.4871961e+08   5.7277376e+09      3.26640           0       21696.442      806.478      101.480     -18.0530
101                572891       292.21300       9346.3174       55122.973       68322.406       9346.3174       55122.973       68322.406    0.0146702      3.51915   0.00166181   0.00210330    0.0566648     -16.6025   7.1107947e+08   5.7277376e+09      3.67801           0       21335.013      3181.85      71.6854     -17.1160
101                577170       843.49727       65095.215       61277.023       74251.703       65095.215       61277.023       74251.703    0.0277627      3.19567   0.00317199   0.00415989     0.184936     -17.3072   4.9786759e+09   5.7277376e+09      3.18804           0       21155.271      147.366      71.6854     -17.8108
101                584785       769.59096       14336.508       55659.188       69681.703       14336.508       55659.188       69681.703   0.00259644      1.24620   0.00118260   0.00142392   0.00280320     -14.3302   1.0991945e+09   5.7277376e+09      1.31641           0       22948.993      3181.85      3181.85     -15.0177
101                584786       808.69312       14305.976       55778.723       69739.891       14305.976       55778.723       69739.891  0.000229715     0.408358  0.000182694   0.00295899   0.00215263     -12.0831   1.0981560e+09   5.7277376e+09      1.31641           0       23044.723      3181.85      3181.85     -12.4836
101                588610       493.11511       32448.135       57242.547       71168.672       32448.135       57242.547       71168.672   0.00592651      2.85435  0.000820209  0.000275894    0.0485083     -16.0156   2.4795144e+09   5.7277376e+09      2.77810           0       22085.871      93.3447      71.6854     -16.3855
101                609224       623.29731       1257.7424       54512.164       68233.148       1257.7424       54512.164       68233.148    0.0169898      2.33428   0.00282182   0.00117679    0.0501821     -16.3459       99602315.   5.7277376e+09      2.32732           0       23158.109      806.478      101.480     -16.9742
101                631291       651.27124       32543.645       56911.258       71025.570       32543.645       56911.258       71025.570   0.00518335      1.91935   0.00141243   0.00139227    0.0248105     -15.5169   2.4833456e+09   5.7277376e+09      1.91295           0       21750.168      93.3447      71.6854     -16.0076
101                639207       716.48364       14078.520       56212.422       69518.258       14078.520       56212.422       69518.258   0.00386812      1.69010  0.000907649  0.000859502    0.0202822     -14.8672   1.0823916e+09   5.7277376e+09      1.89090           0       22907.448      3181.85      127.764     -15.4187
101                641782       697.63047       50132.371       59773.184       72723.133       50132.371       59773.184       72723.133   0.00424200      1.56016   0.00134293   0.00162184    0.0161529     -15.0028   3.8347449e+09   5.7277376e+09      1.39323           0       22567.107      94.0949      71.6854     -15.5530
101                657389       811.15531       13562.497       56021.973       68080.578       13562.497       56021.973       68080.578   0.00277810      1.62954   0.00134092   0.00179544    0.0181362     -15.6053   1.0316088e+09   5.7277376e+09      1.71701           0       21406.550      3181.85      127.764     -15.8945
101                665068       563.92518       2845.8083       54252.660       67651.117       2845.8083       54252.660       67651.117   0.00249560      1.46191   0.00109448   0.00114008    0.0183064     -14.3206   2.1257268e+08   5.7277376e+09      1.36514           0       21975.655      806.478      101.480     -14.9113
101                665740       321.14023       19657.352       56594.383       69656.383       19657.352       56594.383       69656.383   0.00337911      1.44361  0.000945674  0.000983715    0.0105417     -15.4187   1.5044442e+09   5.7277376e+09      1.46025           0       22169.764      3181.85      106.416     -15.6799
101                675612       851.83663       19927.973       56336.031       70348.398       19927.973       56336.031       70348.398   0.00360815      1.32395   0.00118792  0.000492249   0.00966667     -14.8834   1.5281694e+09   5.7277376e+09      1.33231           0       22721.554      3181.85      71.6854     -15.4140
101                680374       725.58902       13779.553       55282.984       69388.945       13779.553       55282.984       69388.945   0.00338929      1.19518  0.000885168  0.000534275   0.00989528     -14.8206   1.0526622e+09   5.7277376e+09      1.26747           0       22558.135      3181.85      3181.85     -15.3487
101                686213       814.65976       18616.381       55499.316       69002.953       18616.381       55499.316       69002.953   0.00383503      1.38219   0.00136645   0.00154594    0.0162876     -14.9662   1.4140043e+09   5.7277376e+09      1.34876           0       21321.041      3181.85      106.416     -15.4692
101                688916       841.40625       9336.1787       54690.879       67958.750       9336.1787       54690.879       67958.750  0.000824326      1.05189  0.000431106  0.000440512   0.00502082     -14.7934   7.0464556e+08   5.7277376e+09     0.958424           0       20904.102      3181.85      71.6854     -14.6563
101                691034       630.36863       13631.729       55315.500       69284.141       13631.729       55315.500       69284.141   0.00128883      1.26323  0.000430472  0.000638218    0.0152170     -13.5752   1.0410110e+09   5.7277376e+09      1.28917           0       22442.722      3181.85      3181.85     -14.1766
101                701946       764.30526       47216.387       59313.367       72828.812       47216.387       59313.367       72828.812  0.000383395      1.22654  0.000315030  0.000316813   0.00736308     -12.1629   3.6137036e+09   5.7277376e+09      1.13522           0       21471.296      94.0949      71.6854     -12.8411
101                712755       864.35795       13266.932       56023.180       68004.148       13266.932       56023.180       68004.148   0.00367348      1.05091   0.00157095  0.000203685   0.00749289     -14.5958   1.0088764e+09   5.7277376e+09      1.04060           0       21296.889      3181.85      127.764     -15.2129
101                712899       660.92337       8092.4390       55866.184       68000.984       8092.4390       55866.184       68000.984  0.000867512      1.04486  0.000530098  0.000310523   0.00106982     -13.3249   6.1969528e+08   5.7277376e+09     0.963718           0       21292.086      3181.85      71.6854     -13.8833
101                721936       790.81457       46808.902       59568.309       72391.695       46808.902       59568.309       72391.695   0.00201199      1.01026   0.00106182   0.00114982    0.0107296     -14.5544   3.5816021e+09   5.7277376e+09     0.964958           0       21622.000      94.0949      71.6854     -14.9930
101                736760       668.24566       2494.5061       54817.316       68419.891       2494.5061       54817.316       68419.891  0.000767022     0.929787  0.000407803  0.000675231   0.00446464     -13.5388   1.9584074e+08   5.7277376e+09     0.908058           0       22892.744      806.478      101.480     -13.9417
101                739415       663.92157       14769.723       55593.453       69572.789       14769.723       55593.453       69572.789   0.00245778     0.831667   0.00128801   0.00140947   0.00300874     -14.7541   1.1304206e+09   5.7277376e+09     0.825712           0       22701.348      3181.85      3181.85     -15.1169
101                739869       297.14398       50248.449       59237.027       72254.141       50248.449       59237.027       72254.141  0.000845460     0.909049  0.000531484  0.000346360   0.00168843     -13.4974   3.8362777e+09   5.7277376e+09     0.894291           0       22053.654      94.0949      71.6854     -13.8755
101                745409       673.39186       22656.352       56803.043       69120.336       22656.352       56803.043       69120.336  0.000723788     0.855396  0.000477262  0.000552482   0.00728623     -12.6261   1.7267715e+09   5.7277376e+09     0.810204           0       21703.422      3181.85      71.6854     -13.3318
101                755607       721.30849       14315.792       55939.215       69651.375       14315.792       55939.215       69651.375   0.00139764     0.632047  0.000803629  0.000865097   0.00125582     -13.9446   1.0993226e+09   5.7277376e+09     0.641561           0       23007.140      3181.85      3181.85     -14.4918
101                756668       667.62841       25430.588       57067.945       69408.000       25430.588       57067.945       69408.000  0.000799361     0.782668  0.000622904  0.000336343  0.000636066     -13.3420   1.9388029e+09   5.7277376e+09     0.752091           0       22394.540      1030.40      71.6854     -13.7811
101                758742       598.05980       13647.883       55270.699       69168.484       13647.883       55270.699       69168.484  0.000907591     0.471762  0.000737320  0.000277013  0.000712168     -12.5976   1.0410497e+09   5.7277376e+09     0.476666           0       22323.883      3181.85      3181.85     -13.3607
101                758743       525.06807       13675.870       55310.801       69086.109       13675.870       55310.801       69086.109  0.000245037     0.396210  0.000270806  0.000931125      0.00000     -11.8822   1.0428043e+09   5.7277376e+09     0.476666           0       22254.341      3181.85      3181.85     -12.4754
101                782354       856.72298       14367.851       55953.539       69792.602       14367.851       55953.539       69792.602  0.000418150     0.554152  0.000435416  6.89979e-05   0.00307094     -13.2141   1.1043839e+09   5.7277376e+09     0.635241           0       23123.458      3181.85      3181.85     -13.4828
101                784779       755.59029       24283.717       57085.738       70613.812       24283.717       57085.738       70613.812  0.000615427     0.605993  0.000423750      0.00000   0.00708882     -11.9745   1.8619525e+09   5.7277376e+09     0.604481           0       23345.859      1030.40      71.6854     -12.7526
101                788744       827.98761       3001.8296       54327.566       67124.117       3001.8296       54327.566       67124.117  0.000582900     0.590723  0.000541390  0.000595906   0.00178988     -13.1002   2.2083250e+08   5.7277376e+09     0.574143           0       21443.876      806.478      101.480     -13.5860
101                789304       632.40318       11470.399       54953.613       68664.047       11470.399       54953.613       68664.047  0.000394390     0.645665  0.000338979  0.000318084   0.00327028     -11.4642   8.7179321e+08   5.7277376e+09     0.614004           0       21601.037      3181.85      3181.85     -12.2285
101                794602       855.57879       55061.445       59006.820       72335.945       55061.445       59006.820       72335.945  0.000106193     0.701010  0.000135763  0.000161109  0.000982752     -10.3752   4.1962964e+09   5.7277376e+09     0.571061           0       22897.036      94.0949      71.6854     -11.0387
101                798455       802.34730       13228.342       54943.352       68855.266       13228.342       54943.352       68855.266  0.000761189     0.629468  0.000535620  0.000527446   0.00114477     -13.3926   1.0050031e+09   5.7277376e+09     0.619591           0       21911.187      3181.85      3181.85     -13.7467
101                824718       772.12739       70976.555       60695.469       73880.438       70976.555       60695.469       73880.438  0.000138389     0.526874  0.000310548  0.000316741   0.00153264     -11.1581   5.4130268e+09   5.7277376e+09     0.488977           0       20764.524      147.366      71.6854     -11.8328
101                837471       807.74219       13147.736       55039.453       68400.578       13147.736       55039.453       68400.578  0.000164570     0.544591  0.000399380      0.00000      0.00000     -10.9101   9.9620273e+08   5.7277376e+09     0.545519           0       21473.634      3181.85      3181.85     -11.7063
101                860722       851.60316       23564.752       57523.445       69682.867       23564.752       57523.445       69682.867  0.000237740     0.419500  0.000435476  0.000400608  0.000493073     -11.3342   1.8040324e+09   5.7277376e+09     0.398633           0       22553.598      1821.10      71.6854     -12.0482
101                861280       551.05770       57849.562       59965.086       72756.453       57849.562       59965.086       72756.453  0.000147509     0.443626  0.000356879  0.000156276      0.00000     -10.6484   4.4150926e+09   5.7277376e+09     0.405727           0       21842.686      71.6854      71.6854     -11.4359
101                867102       430.00369       14018.490       55739.414       69325.688       14018.490       55739.414       69325.688  0.000474139     0.389176  0.000556792  7.90511e-05  0.000618283     -12.2244   1.0732201e+09   5.7277376e+09     0.412805           0       22614.830      3181.85      3181.85     -12.8924
101                868201       837.63376       14778.407       55144.316       68579.711       14778.407       55144.316       68579.711  0.000815334     0.393623  0.000728542  0.000737308  0.000635339     -12.3363   1.1205615e+09   5.7277376e+09     0.384889           0       21667.921      3181.85      3181.85     -13.1362
101                868202       506.22126       15056.116       56420.785       69051.945       15056.116       56420.785       69051.945  0.000206438     0.357020  0.000237829      0.00000      0.00000     -10.6470   1.1536347e+09   5.7277376e+09     0.337288           0       22391.426      3181.85      127.764     -11.4034
101                907156       601.49667       13845.246       55848.086       69487.789       13845.246       55848.086       69487.789  0.000342673     0.281832  0.000340261      0.00000      0.00000     -11.6207   1.0621835e+09   5.7277376e+09     0.321933           0       22769.950      3181.85      3181.85     -12.3152
101                907601       844.39468       2779.4456       54006.277       67467.469       2779.4456       54006.277       67467.469  0.000313323     0.278829  0.000394824  0.000391538   0.00148321     -11.3176   2.0453822e+08   5.7277376e+09     0.313656           0       21798.546      806.478      101.480     -12.0441
101                909135       734.34230       13811.477       55584.828       69584.734       13811.477       55584.828       69584.734   0.00248447     0.324317      0.00000      0.00000      0.00000     -13.7491   1.0585829e+09   5.7277376e+09     0.345776           0       22808.402      3181.85      3181.85     -14.5576
101                985506       645.56721       13962.302       56031.848       69509.484       13962.302       56031.848       69509.484  0.000227556     0.193888  0.000335733      0.00000      0.00000     -11.1180   1.0723783e+09   5.7277376e+09     0.214526           0       22844.418      3181.85      3181.85     -11.8808
101               1014083       849.46286       9451.3613       54686.574       67977.969       9451.3613       54686.574       67977.969  0.000201787     0.242007  0.000231698      0.00000      0.00000     -10.3248   7.1339905e+08   5.7277376e+09     0.231471           0       20914.491      3181.85      71.6854     -11.1009
101               1052947       387.10305       14805.488       56063.934       69330.703       14805.488       56063.934       69330.703  0.000186133     0.187832  0.000247583      0.00000      0.00000     -10.4344   1.1344952e+09   5.7277376e+09     0.198800           0       22605.954      3181.85      127.764     -11.1892
