###  /n/ghernquist/Illustris/Runs/L75n1820FP/output/
###  snapnum, shindex, D_KPC, x_0, y_0, z_0, x_new, y_new, z_new, Mstar, Mhalo, Zgas, Zstar, SFR, Bband, t_num, t_den, groupM200, isneargroup, mingroupdist, massive10Mpc, massive3Mpc, rband 
120                494897       96.894995       16277.671       49238.695       54035.969       16277.671       49238.695       54035.969     0.218020      15.1995   0.00788790    0.0109312      1.24023     -19.6227   1.2426502e+09   5.7277376e+09      15.3511           1       6611.0081      12867.2      70.9286     -20.0771
120                494898       160.46545       16307.405       49269.758       53981.617       16307.405       49269.758       53981.617   0.00117967    0.0648127      0.00000      0.00000      0.00000     -13.3259   1.2446845e+09   5.7277376e+09      15.3511           1       6554.0890      12867.2      70.9286     -14.0033
120                550356       122.74210       13297.092       48955.293       53951.727       13297.092       48955.293       53951.727     0.107786      7.10856   0.00759808    0.0100401     0.171685     -18.0510   1.0165427e+09   5.7277376e+09      6.63573           1       7267.8816      12867.2      70.9286     -18.7344
120                568285       128.07591       20299.889       49453.465       54577.098       20299.889       49453.465       54577.098    0.0634104      5.48876   0.00541575   0.00571403    0.0973717     -17.7251   1.5498394e+09   5.7277376e+09      5.40807           1       5755.3868      8111.38      164.157     -18.2850
120                573664       316.53207       63393.293       53307.992       58577.117       63393.293       53307.992       58577.117    0.0697376      5.71534   0.00631399   0.00726493     0.163828     -18.0504   4.8381257e+09   5.7277376e+09      5.58466           1       8900.3930      7396.85      108.161     -18.6054
120                641895       355.97055       68447.055       53596.848       59398.445       68447.055       53596.848       59398.445   0.00992954      2.48781   0.00182035   0.00254327    0.0336506     -16.2113   5.2252873e+09   5.7277376e+09      2.45911           1       7824.1970      7396.85      70.9286     -16.6486
120                652005       304.18808       64701.844       53837.551       59175.332       64701.844       53837.551       59175.332   0.00861210      2.19047   0.00161983   0.00182842    0.0109063     -15.6491   4.9443643e+09   5.7277376e+09      2.03981           1       8295.8434      7396.85      108.161     -16.1846
120                740985       193.43084       41276.238       51588.879       56467.867       41276.238       51588.879       56467.867   0.00235431     0.969786   0.00118349  0.000329878   0.00175276     -13.5106   3.1518060e+09   5.7277376e+09     0.927542           0       19183.559      1230.03      70.9286     -14.2144
120                751908       320.16527       68032.984       53635.688       59136.492       68032.984       53635.688       59136.492  0.000802122     0.829181  0.000608322  0.000541421   0.00205146     -13.2076   5.1925322e+09   5.7277376e+09     0.795324           1       7607.6869      7396.85      70.9286     -13.7437
120                779639       121.95809       64153.758       53675.695       58954.922       64153.758       53675.695       58954.922  0.000262006     0.692365  0.000235816      0.00000      0.00000     -12.0249   4.9005012e+09   5.7277376e+09     0.656826           1       8502.5444      7396.85      108.161     -12.3821
