###  /n/ghernquist/Illustris/Runs/L75n1820FP/output/
###  snapnum, shindex, D_KPC, x_0, y_0, z_0, x_new, y_new, z_new, Mstar, Mhalo, Zgas, Zstar, SFR, Bband, t_num, t_den, groupM200, isneargroup, mingroupdist, massive10Mpc, massive3Mpc, rband 
035                  1556       2250.9942       33831.383       2474.4102       65558.367       33831.383       2474.4102       65558.367   0.00919638      2.86083   0.00157249   0.00168755      2.62452     -18.6041   2.5959124e+09   5.7277376e+09      2.69640           0      -1.0000000   0.00446918   0.00446918     -18.5250
035                  1557       2279.7542       33735.840       2373.7178       65550.805       33735.840       2373.7178       65550.805  0.000586726     0.405787  0.000404980  0.000324556     0.195870     -15.9803   2.5880035e+09   5.7277376e+09      2.69640           0      -1.0000000   0.00446918   0.00446918     -15.7065
035                  3581       3934.9961       25190.227       673.33295       66112.742       25190.227       673.33295       66112.742  0.000192858     0.224921  0.000173621  0.000134878    0.0461752     -13.8800   1.9397035e+09   5.7277376e+09      1.30697           0      -1.0000000   0.00446918   0.00446918     -13.7417
035                  7234       2347.0346       33492.031       2304.4473       65581.789       33492.031       2304.4473       65581.789  0.000516565     0.908429  0.000163411  0.000168803     0.166309     -15.4060   2.5694779e+09   5.7277376e+09     0.632066           0      -1.0000000   0.00446918   0.00446918     -15.1896
035                  9030       3300.5023       27080.725       2431.2881       66024.484       27080.725       2431.2881       66024.484   0.00108925      1.02270   0.00108870  0.000593651     0.137326     -16.1416   2.0928149e+09   5.7277376e+09     0.864671           0      -1.0000000   0.00446918   0.00446918     -16.0883
035                  9031       3289.8181       27147.414       2470.0232       66020.852       27147.414       2470.0232       66020.852  0.000140722    0.0386350  3.16051e-05  2.17103e-05   0.00610422     -14.1596   2.0980535e+09   5.7277376e+09     0.864671           0      -1.0000000   0.00446918   0.00446918     -13.7628
035                  9352       2145.1589       29841.867       3868.6116       64813.805       29841.867       3868.6116       64813.805  0.000930827     0.898315  0.000383129  0.000566226     0.227048     -16.0756   2.3006205e+09   5.7277376e+09     0.773309           0      -1.0000000   0.00446918   0.00446918     -15.8977
035                 10575       3794.3604       40494.883       5620.2866       67349.398       40494.883       5620.2866       67349.398   0.00248231     0.916748   0.00106029   0.00121138     0.695234     -17.1930   3.1305568e+09   5.7277376e+09     0.996227           0      -1.0000000   0.00446918   0.00446918     -17.1435
035                 12277       3168.4487       24956.861       5153.9253       63863.738       24956.861       5153.9253       63863.738   0.00101770     0.688106  0.000426984  0.000376982     0.216388     -16.3615   1.9358830e+09   5.7277376e+09     0.562008           0      -1.0000000   0.00446918   0.00446918     -16.1039
035                 13130       1623.7133       30336.012       3500.8235       64492.758       30336.012       3500.8235       64492.758  0.000748478     0.764078  0.000553386  0.000409458     0.268506     -15.9132   2.3327658e+09   5.7277376e+09     0.733234           0      -1.0000000   0.00446918   0.00446918     -15.7376
035                 13370       3506.5007       71273.969       7353.7964       63721.812       71273.969       7353.7964       63721.812  0.000597760     0.705865  0.000320637  0.000107148     0.114744     -15.8994   5.4236008e+09   5.7277376e+09     0.580939           0      -1.0000000   0.00446918   0.00446918     -15.5968
035                 13371       3505.8425       71307.359       7369.6812       63729.273       71307.359       7369.6812       63729.273  0.000490924    0.0696139  0.000523526  6.44764e-05    0.0502897     -15.2631   5.4262693e+09   5.7277376e+09     0.580939           0      -1.0000000   0.00446918   0.00446918     -15.1479
035                 13594       1669.6632       30392.176       3488.1868       64558.555       30392.176       3488.1868       64558.555  0.000342469     0.463410  0.000216284  4.13540e-05    0.0920163     -15.1246   2.3373854e+09   5.7277376e+09     0.482149           0      -1.0000000   0.00446918   0.00446918     -14.8105
035                 13911       3493.1469       32231.541       5984.2812       61524.418       32231.541       5984.2812       61524.418   0.00127178     0.649773  0.000826990  0.000210642     0.223467     -15.7876   2.4696006e+09   5.7277376e+09     0.693940           0      -1.0000000   0.00446918   0.00446918     -15.8219
035                 18515       2375.3516       29783.082       1329.9163       64914.543       29783.082       1329.9163       64914.543  0.000552173     0.604676  0.000372921  0.000297167     0.157823     -15.7377   2.2796578e+09   5.7277376e+09     0.533022           0      -1.0000000   0.00446918   0.00446918     -15.4638
035                 19453       2388.3953       35567.934       1102.8026       64639.359       35567.934       1102.8026       64639.359  0.000311620    0.0373829  3.51565e-06  1.79322e-11   0.00728058     -16.5553   2.7099093e+09   5.7277376e+09     0.213599           0      -1.0000000   0.00446918   0.00446918     -17.0287
035                 20204       3114.3020       25347.326       5033.9814       64086.336       25347.326       5033.9814       64086.336  0.000551406     0.509733  0.000429505  0.000281129    0.0861691     -15.9580   1.9660196e+09   5.7277376e+09     0.400589           0      -1.0000000   0.00446918   0.00446918     -15.6394
035                 20846       3411.9286       32256.115       5920.5498       61575.391       32256.115       5920.5498       61575.391  0.000316565     0.519029  0.000200234  0.000160740     0.165041     -15.8549   2.4713915e+09   5.7277376e+09     0.611075           0      -1.0000000   0.00446918   0.00446918     -15.9866
035                 21822       3797.0482       26075.426       699.62726       66022.375       26075.426       699.62726       66022.375  0.000408164     0.335279  0.000430875  0.000336508    0.0412756     -14.8982   2.0055949e+09   5.7277376e+09     0.269942           0      -1.0000000   0.00446918   0.00446918     -14.8280
035                 23695       2483.5382       29889.932       1296.4821       65027.328       29889.932       1296.4821       65027.328  0.000193840     0.486500  9.44325e-05  0.000183030     0.107296     -15.2487   2.2882895e+09   5.7277376e+09     0.446005           0      -1.0000000   0.00446918   0.00446918     -14.8331
035                 24417       3608.5286       47230.422       681.55188       64404.473       47230.422       681.55188       64404.473  0.000199963     0.462217  0.000182194  0.000139073    0.0976265     -14.2212   3.5799621e+09   5.7277376e+09     0.442772           0      -1.0000000   0.00446918   0.00446918     -14.0474
035                 24839       1917.5914       54303.047       6803.6602       64975.812       54303.047       6803.6602       64975.812  0.000139585     0.466528  0.000198337  0.000299047    0.0619413     -13.7029   4.1564357e+09   5.7277376e+09     0.352961           0      -1.0000000   0.00446918   0.00446918     -13.6870
035                 25491       2374.2115       32761.914       3093.7693       65660.391       32761.914       3093.7693       65660.391  0.000751259     0.473077  0.000397330  9.89444e-06     0.142444     -15.6046   2.5206904e+09   5.7277376e+09     0.490291           0      -1.0000000   0.00446918   0.00446918     -15.4440
035                 26316       1221.8681       55188.418       6239.0210       65418.953       55188.418       6239.0210       65418.953  0.000464610     0.428654  0.000540763  0.000117481    0.0878353     -15.2053   4.2223123e+09   5.7277376e+09     0.388677           0      -1.0000000   0.00446918   0.00446918     -15.0950
035                 26419       3271.1842       32311.883       5784.6543       61617.691       32311.883       5784.6543       61617.691  0.000519668     0.405366  0.000441468  0.000290558    0.0818315     -15.8576   2.4749647e+09   5.7277376e+09     0.404534           0      -1.0000000   0.00446918   0.00446918     -15.5351
035                 27870       2040.0164       29715.320       4273.1685       64300.395       29715.320       4273.1685       64300.395  0.000266443     0.338827  0.000391074  0.000378887    0.0323854     -14.2954   2.2900372e+09   5.7277376e+09     0.229409           0      -1.0000000   0.00446918   0.00446918     -14.3285
035                 27871       2064.5632       29672.045       4300.5288       64297.199       29672.045       4300.5288       64297.199  0.000361012    0.0573080  0.000248698  0.000234814    0.0138301     -15.0905   2.2869542e+09   5.7277376e+09     0.229409           0      -1.0000000   0.00446918   0.00446918     -14.7638
035                 29626       3902.4178       61630.797       1719.0800       65606.633       61630.797       1719.0800       65606.633  0.000642382     0.422180  0.000524620  0.000154228    0.0819428     -14.6193   4.6760805e+09   5.7277376e+09     0.412839           0      -1.0000000   0.00446918   0.00446918     -14.7080
035                 29981       3782.1876       41942.242       6255.1851       61305.500       41942.242       6255.1851       61305.500  0.000217753     0.403955  0.000360822  0.000225631    0.0611516     -14.2423   3.1981084e+09   5.7277376e+09     0.374441           0      -1.0000000   0.00446918   0.00446918     -14.0948
035                 30397       3715.7439       53980.148       7409.6562       68190.336       53980.148       7409.6562       68190.336  0.000194867     0.351978  0.000139027  0.000133475    0.0329633     -14.7099   4.1604590e+09   5.7277376e+09     0.253087           0      -1.0000000   0.00446918   0.00446918     -14.3987
035                 30665       3776.5238       45199.191       966.80469       66616.180       45199.191       966.80469       66616.180  0.000193394     0.383186  4.87737e-05  4.15085e-05    0.0704289     -14.9869   3.4461526e+09   5.7277376e+09     0.297388           0      -1.0000000   0.00446918   0.00446918     -14.5756
035                 31666       2182.7417       29936.527       3933.9912       64831.898       29936.527       3933.9912       64831.898  0.000466984     0.397556  0.000491638  4.07338e-05    0.0987256     -14.8838   2.3083015e+09   5.7277376e+09     0.407418           0      -1.0000000   0.00446918   0.00446918     -14.8216
035                 32685       3374.5085       36189.504       4917.7104       60659.352       36189.504       4917.7104       60659.352  0.000181767     0.290357  0.000127394  8.88671e-05    0.0401888     -15.0476   2.7526878e+09   5.7277376e+09     0.278682           0      -1.0000000   0.00446918   0.00446918     -14.6676
035                 33628       2264.7087       33221.914       4075.0037       65347.957       33221.914       4075.0037       65347.957  0.000104203     0.375112  5.63535e-05  1.37977e-06     0.107878     -15.3213   2.5595373e+09   5.7277376e+09     0.360919           0      -1.0000000   0.00446918   0.00446918     -14.9362
035                 33655       3282.5341       44527.348       6279.6509       62045.266       44527.348       6279.6509       62045.266  0.000318749     0.375887  0.000281131  0.000102884    0.0540634     -15.1657   3.3977064e+09   5.7277376e+09     0.309430           0      -1.0000000   0.00446918   0.00446918     -14.8951
035                 34560       2332.3645       27823.658       498.46255       63931.234       27823.658       498.46255       63931.234  0.000268029     0.337472  0.000198152  0.000109272    0.0995369     -14.5395   2.1196572e+09   5.7277376e+09     0.376934           0      -1.0000000   0.00446918   0.00446918     -14.3810
035                 39614       3687.2406       61667.480       5065.7305       62496.078       61667.480       5065.7305       62496.078  0.000283192     0.299568  0.000216609  0.000186151    0.0454554     -15.3668   4.6783207e+09   5.7277376e+09     0.270974           0      -1.0000000   0.00446918   0.00446918     -15.3443
035                 40434       3630.0714       35302.742       5059.5020       60403.805       35302.742       5059.5020       60403.805  0.000226480     0.334333  0.000348109  8.57123e-07    0.0326704     -14.4426   2.6852308e+09   5.7277376e+09     0.314459           0      -1.0000000   0.00446918   0.00446918     -14.4074
035                 40654       2771.7812       54033.609       7051.0815       63640.395       54033.609       7051.0815       63640.395  0.000397453     0.283087  0.000223780  0.000210561    0.0621505     -15.2989   4.1278992e+09   5.7277376e+09     0.277255           0      -1.0000000   0.00446918   0.00446918     -15.0138
035                 41024       2113.4027       29959.068       4026.3149       64684.195       29959.068       4026.3149       64684.195  0.000210245     0.327390  0.000121041  0.000260148    0.0472371     -15.6003   2.3095137e+09   5.7277376e+09     0.320072           0      -1.0000000   0.00446918   0.00446918     -15.2568
035                 41144       1545.5848       48493.906       3035.4360       64113.113       48493.906       3035.4360       64113.113  0.000195131     0.329865  9.36035e-05  9.23228e-05    0.0375698     -14.2556   3.6885875e+09   5.7277376e+09     0.329774           0      -1.0000000   0.00446918   0.00446918     -13.9326
035                 42051       3385.7029       26336.723       5638.2646       63680.648       26336.723       5638.2646       63680.648  0.000388437     0.320912  0.000378548  0.000342227    0.0366725     -14.5592   2.0413018e+09   5.7277376e+09     0.332819           0      -1.0000000   0.00446918   0.00446918     -14.4696
035                 42616       3156.6332       44810.473       6071.8345       62036.547       44810.473       6071.8345       62036.547  0.000142604     0.285382  7.90770e-05  6.70451e-05    0.0322236     -13.6674   3.4174584e+09   5.7277376e+09     0.272820           0      -1.0000000   0.00446918   0.00446918     -13.4049
035                 43909       1081.7566       63256.543       4981.9214       65550.625       63256.543       4981.9214       65550.625  0.000304725     0.296190  0.000203389  0.000213159    0.0393622     -13.7375   4.8198381e+09   5.7277376e+09     0.262504           0      -1.0000000   0.00446918   0.00446918     -13.8792
035                 44442       1832.3728       54218.566       6329.2573       64239.977       54218.566       6329.2573       64239.977  0.000169229     0.263779  0.000169604  0.000117447    0.0426681     -13.8969   4.1413463e+09   5.7277376e+09     0.232111           0      -1.0000000   0.00446918   0.00446918     -13.6805
035                 46561       3811.6276       48820.434       1045.5168       66624.383       48820.434       1045.5168       66624.383  0.000214978     0.285649  4.72174e-05  3.84536e-05    0.0537263     -15.5513   3.7183439e+09   5.7277376e+09     0.278651           0      -1.0000000   0.00446918   0.00446918     -15.1956
035                 46744       3598.5727       41652.180       1778.2520       67153.477       41652.180       1778.2520       67153.477  0.000388034     0.281628  0.000291103  0.000287780    0.0340924     -15.4457   3.1896890e+09   5.7277376e+09     0.245265           0      -1.0000000   0.00446918   0.00446918     -15.2199
035                 49035       3741.3938       25118.061       37.228203       65505.359       25118.061       37.228203       65505.359  0.000151282     0.277746  0.000130287  0.000110389    0.0368005     -13.4886   1.9253986e+09   5.7277376e+09     0.226927           0      -1.0000000   0.00446918   0.00446918     -13.3974
035                 51773       2915.2757       35239.664       1612.4175       65968.703       35239.664       1612.4175       65968.703  0.000324987     0.249903  6.95625e-05  8.31181e-05    0.0333797     -15.3470   2.6987338e+09   5.7277376e+09     0.210348           0      -1.0000000   0.00446918   0.00446918     -15.4277
035                 52632       3385.4227       27297.541       2431.7842       66131.109       27297.541       2431.7842       66131.109  0.000196545     0.262871  0.000302128  0.000216321    0.0300020     -13.8228   2.1098792e+09   5.7277376e+09     0.259282           0      -1.0000000   0.00446918   0.00446918     -13.8456
035                 54253       2315.4919       33024.977       2490.3914       65567.734       33024.977       2490.3914       65567.734  0.000162605     0.233083  0.000118853  0.000106767    0.0270567     -13.5689   2.5356112e+09   5.7277376e+09     0.187961           0      -1.0000000   0.00446918   0.00446918     -13.3366
035                 55221       1826.0181       25874.283       569.45087       63000.281       25874.283       569.45087       63000.281  0.000312293     0.208543  0.000265582  0.000264488    0.0170932     -14.0720   1.9669560e+09   5.7277376e+09     0.150949           0      -1.0000000   0.00446918   0.00446918     -14.0839
035                 56893       3827.9406       45175.094       921.98688       66642.539       45175.094       921.98688       66642.539  0.000258397     0.143296  0.000198693  1.15373e-22    0.0249042     -14.2276   3.4442373e+09   5.7277376e+09     0.195754           0      -1.0000000   0.00446918   0.00446918     -14.0367
035                 60996       3144.8799       55500.844       3100.2126       63042.988       55500.844       3100.2126       63042.988  0.000266464     0.225356  0.000129447  9.56206e-05    0.0355620     -14.4531   4.2065235e+09   5.7277376e+09     0.237796           0      -1.0000000   0.00446918   0.00446918     -14.1730
035                 65275       2205.2742       37993.594       5569.1313       63162.539       37993.594       5569.1313       63162.539  0.000138779     0.220368  8.62906e-05  6.51612e-05    0.0326104     -13.6409   2.9112099e+09   5.7277376e+09     0.214287           0      -1.0000000   0.00446918   0.00446918     -13.4457
035                 66651       3626.9889       40563.898       5594.8149       67178.773       40563.898       5594.8149       67178.773  0.000208487     0.208373  0.000263950  0.000287784    0.0158814     -13.6510   3.1342796e+09   5.7277376e+09     0.172147           0      -1.0000000   0.00446918   0.00446918     -13.7209
035                 67069       3106.9005       47315.812       4749.9951       67825.453       47315.812       4749.9951       67825.453  0.000324089     0.212859  0.000302184  0.000291243    0.0211533     -14.4787   3.6397632e+09   5.7277376e+09     0.201349           0      -1.0000000   0.00446918   0.00446918     -14.2865
035                 67531       3968.1441       25322.762       1171.3423       66345.914       25322.762       1171.3423       66345.914  0.000261751     0.151818  0.000190978  0.000167634    0.0165319     -13.7635   1.9547879e+09   5.7277376e+09     0.154396           0      -1.0000000   0.00446918   0.00446918     -13.7781
035                 68258       3558.9152       36778.211       5027.1338       60538.301       36778.211       5027.1338       60538.301  0.000219047     0.206017  9.79646e-05  6.09589e-05    0.0257653     -14.6951   2.7966790e+09   5.7277376e+09     0.203310           0      -1.0000000   0.00446918   0.00446918     -14.4070
035                 69527       3496.1055       44159.359       5378.1982       67665.703       44159.359       5378.1982       67665.703  0.000197889     0.204399  0.000109143  9.52880e-05    0.0316578     -14.3542   3.4061143e+09   5.7277376e+09     0.178539           0      -1.0000000   0.00446918   0.00446918     -14.0165
035                 70389       709.64121       52183.348       4782.5386       64506.578       52183.348       4782.5386       64506.578  0.000148033     0.202065  0.000187559  0.000170133    0.0176008     -14.6856   3.9801586e+09   5.7277376e+09     0.192396           0      -1.0000000   0.00446918   0.00446918     -14.4774
035                 70878       2707.5162       35820.074       4972.8154       65707.539       35820.074       4972.8154       65707.539  0.000493429     0.197358  0.000420016  0.000360684    0.0246763     -15.2096   2.7632177e+09   5.7277376e+09     0.190161           0      -1.0000000   0.00446918   0.00446918     -15.0757
035                 78861       2708.5420       32781.102       5204.0283       61731.320       32781.102       5204.0283       61731.320  0.000303540     0.173379  0.000143550  0.000118384    0.0258538     -15.0808   2.5070495e+09   5.7277376e+09     0.185295           0      -1.0000000   0.00446918   0.00446918     -14.7586
035                 83223       3361.1140       24424.752       5371.7148       63680.129       24424.752       5371.7148       63680.129  0.000207270     0.176976  0.000104774  5.72398e-05    0.0105719     -14.5640   1.8960827e+09   5.7277376e+09     0.135414           0      -1.0000000   0.00446918   0.00446918     -14.2173
035                 87532       3793.8439       46273.133       1236.9763       66988.547       46273.133       1236.9763       66988.547  0.000271557     0.165921  7.19117e-05  6.70221e-05    0.0158556     -16.4022   3.5313330e+09   5.7277376e+09     0.156344           0      -1.0000000   0.00446918   0.00446918     -16.8779
035                 96496       2524.7522       36294.254       5434.5679       65016.707       36294.254       5434.5679       65016.707  0.000150818     0.138700  0.000144432  6.75788e-05    0.0116518     -14.5221   2.7967482e+09   5.7277376e+09     0.137819           0      -1.0000000   0.00446918   0.00446918     -14.2430
035                 98208       3793.6100       46412.504       899.59351       62741.676       46412.504       899.59351       62741.676  0.000281385     0.152450  0.000246780  0.000156768   0.00942905     -14.3264   3.5076340e+09   5.7277376e+09     0.157485           0      -1.0000000   0.00446918   0.00446918     -14.1674
035                 99554       1974.8659       34381.289       1684.0226       64787.961       34381.289       1684.0226       64787.961  0.000179122     0.140183  0.000153490  0.000162808    0.0132384     -13.1699   2.6259884e+09   5.7277376e+09     0.142762           0      -1.0000000   0.00446918   0.00446918     -13.2596
035                 99685       2050.6443       37980.871       5401.9473       63151.230       37980.871       5401.9473       63151.230  0.000197951     0.152365  5.62971e-05  2.62835e-05   0.00679145     -14.6634   2.9090310e+09   5.7277376e+09     0.148827           0      -1.0000000   0.00446918   0.00446918     -14.2739
035                100749       2782.5666       54126.422       5434.3755       62668.629       54126.422       5434.3755       62668.629  0.000202388     0.149929  0.000186452  7.09656e-05    0.0123478     -13.9144   4.1165489e+09   5.7277376e+09     0.123997           0      -1.0000000   0.00446918   0.00446918     -13.7808
035                104633       3028.4244       27020.258       352.79736       60485.340       27020.258       352.79736       60485.340  0.000215690     0.144197  0.000179529  0.000187165   0.00819508     -13.6051   2.0325648e+09   5.7277376e+09     0.124020           0      -1.0000000   0.00446918   0.00446918     -13.6513
035                113344       2570.3355       24225.812       509.23035       60457.750       24225.812       509.23035       60457.750  0.000189546     0.132902  0.000116128  7.87186e-05    0.0119049     -13.6702   1.8238411e+09   5.7277376e+09     0.133323           0      -1.0000000   0.00446918   0.00446918     -13.6057
035                125556       1613.2907       56908.859       5105.6753       64070.426       56908.859       5105.6753       64070.426  0.000193311     0.125628  1.01574e-05  5.91046e-06   0.00816249     -15.9861   4.3335041e+09   5.7277376e+09     0.123755           0      -1.0000000   0.00446918   0.00446918     -16.5158
035                126758       2367.7057       29726.859       1134.3286       64747.016       29726.859       1134.3286       64747.016  0.000234642     0.101411  0.000114871  9.47585e-05   0.00276951     -13.9985   2.2728511e+09   5.7277376e+09    0.0838629           0      -1.0000000   0.00446918   0.00446918     -13.7695
035                147698       3846.1233       43411.598       3998.4336       60476.828       43411.598       3998.4336       60476.828  0.000163587     0.108536  4.52577e-05  2.07669e-05    0.0104616     -13.8651   3.2867081e+09   5.7277376e+09    0.0973956           0      -1.0000000   0.00446918   0.00446918     -13.5737
035                149682       2121.0528       25549.939       3729.5032       64168.055       25549.939       3729.5032       64168.055  0.000203906     0.105447  8.97382e-05  8.30951e-05   0.00477404     -13.9088   1.9729343e+09   5.7277376e+09    0.0948771           0      -1.0000000   0.00446918   0.00446918     -13.7235
035                162007       1850.4230       18518.711       2561.1736       60220.734       18518.711       2561.1736       60220.734  0.000211728    0.0965824  4.45786e-05  2.14507e-05   0.00481999     -14.4785   1.4080214e+09   5.7277376e+09    0.0997912           0      -1.0000000   0.00446918   0.00446918     -14.1256
035                218144       2706.4253       28695.340       1662.8120       65410.766       28695.340       1662.8120       65410.766  0.000214276    0.0774651  5.55273e-05  3.55722e-05   0.00577349     -13.9428   2.2040686e+09   5.7277376e+09    0.0697437           0      -1.0000000   0.00446918   0.00446918     -13.8330
035                271086       3893.9179       43699.715       3385.6460       68233.500       43699.715       3385.6460       68233.500  0.000226654    0.0617054  1.58874e-05  1.40620e-05   0.00271465     -14.4265   3.3623138e+09   5.7277376e+09    0.0470275           0      -1.0000000   0.00446918   0.00446918     -14.1273
035                279711       2926.5036       54024.797       5866.4399       62629.785       54024.797       5866.4399       62629.785  0.000156127    0.0606234  3.31883e-05  2.25070e-05   0.00125455     -13.6259   4.1115816e+09   5.7277376e+09    0.0573533           0      -1.0000000   0.00446918   0.00446918     -13.4998
035                413591       2176.0518       32104.381       3471.4829       65331.070       32104.381       3471.4829       65331.070  0.000100603    0.0426096  5.51077e-06  3.80919e-06   0.00198869     -14.6978   2.4714808e+09   5.7277376e+09    0.0413590           0      -1.0000000   0.00446918   0.00446918     -14.3271
035                 23382       3758.4905       35591.082       74564.859       64403.660       35591.082      -435.14062       64403.660  0.000310475     0.425869  0.000369996  5.39886e-05    0.0428622     -15.3867   2.6993917e+09   5.7277376e+09     0.279074           0      -1.0000000   0.00446918   0.00446918     -15.2071
035                 75057       3135.4944       29487.834       74540.422       63146.824       29487.834      -459.57812       63146.824  0.000204636     0.191974  0.000322946  0.000330963    0.0126715     -13.7938   2.2320552e+09   5.7277376e+09     0.187104           0      -1.0000000   0.00446918   0.00446918     -13.8689
