###  /n/ghernquist/Illustris/Runs/L75n1820FP/output/
###  snapnum, shindex, D_KPC, x_0, y_0, z_0, x_new, y_new, z_new, Mstar, Mhalo, Zgas, Zstar, SFR, Bband, t_num, t_den, groupM200, isneargroup, mingroupdist, massive10Mpc, massive3Mpc, rband 
034                   435       2804.6790       24922.174       7462.1479       72281.953       24922.174       7462.1479       72281.953    0.0124392      4.33430   0.00205572   0.00213548      3.88546     -19.4330   1.9094184e+09   5.7277376e+09      3.59212           0      -1.0000000   0.00198655   0.00198655     -19.3518
034                   436       2780.2352       24902.871       7396.0894       72202.000       24902.871       7396.0894       72202.000   0.00103408     0.318683  0.000642414  0.000620342     0.317810     -16.1053   1.9069206e+09   5.7277376e+09      3.59212           0      -1.0000000   0.00198655   0.00198655     -15.9488
034                   909       2358.2064       31276.123       10521.858       72843.266       31276.123       10521.858       72843.266   0.00833858      3.27234   0.00157007   0.00200754      2.22466     -18.6552   2.4110361e+09   5.7277376e+09      3.03262           0      -1.0000000   0.00198655   0.00198655     -18.6423
034                   910       2408.8447       31326.742       10504.959       72910.742       31326.742       10504.959       72910.742  0.000147843    0.0635980  0.000128176  0.000124390    0.0148744     -13.4954   2.4152233e+09   5.7277376e+09      3.03262           0      -1.0000000   0.00198655   0.00198655     -13.3898
034                  1560       2507.8812       28142.434       10065.370       72744.633       28142.434       10065.370       72744.633   0.00135923      1.39327  0.000566753  0.000654017     0.354850     -16.3896   2.1721572e+09   5.7277376e+09     0.807055           0      -1.0000000   0.00198655   0.00198655     -16.2850
034                  1561       2445.4484       28061.059       10075.323       72666.211       28061.059       10075.323       72666.211  0.000569204     0.495167  0.000169693  0.000158403     0.163931     -14.9465   2.1655338e+09   5.7277376e+09     0.807055           0      -1.0000000   0.00198655   0.00198655     -14.8298
034                  1562       2542.6903       28201.707       10070.535       72786.969       28201.707       10070.535       72786.969  0.000870509     0.154746  0.000656486  0.000548705     0.127191     -15.8066   2.1769554e+09   5.7277376e+09     0.807055           0      -1.0000000   0.00198655   0.00198655     -15.6907
034                  1564       2410.9003       28038.373       10062.851       72630.727       28038.373       10062.851       72630.727  0.000222614    0.0580497  0.000424278  0.000410680    0.0208572     -14.1298   2.1634812e+09   5.7277376e+09     0.807055           0      -1.0000000   0.00198655   0.00198655     -14.0317
034                  3025       3749.0460       7627.5557       8444.1924       64621.016       7627.5557       8444.1924       64621.016   0.00172271      1.45853   0.00111900  0.000892093     0.534356     -16.8057   5.6156073e+08   5.7277376e+09      1.05775           0      -1.0000000   0.00198655   0.00198655     -16.6944
034                  3026       3837.5885       7650.8086       8547.1748       64559.113       7650.8086       8547.1748       64559.113  0.000263365     0.125607  0.000146366  0.000134636    0.0439850     -14.4264   5.6354258e+08   5.7277376e+09      1.05775           0      -1.0000000   0.00198655   0.00198655     -14.1871
034                  3195       1828.1657       27464.756       7953.3960       71466.430       27464.756       7953.3960       71466.430   0.00296131      1.57057   0.00122880  1.18724e-05     0.966980     -17.7739   2.0973450e+09   5.7277376e+09      1.48118           0      -1.0000000   0.00198655   0.00198655     -17.6091
034                  3982       3854.7366       25721.484       8448.0352       66257.398       25721.484       8448.0352       66257.398   0.00295243      1.35482   0.00158476   0.00139139     0.542797     -17.8013   1.9309045e+09   5.7277376e+09      1.31375           0      -1.0000000   0.00198655   0.00198655     -17.7166
034                  5320       3179.9120       55566.656       8676.6953       73040.367       55566.656       8676.6953       73040.367  0.000213730     0.680578  8.13723e-05  5.58262e-05     0.100957     -14.2300   4.2217237e+09   5.7277376e+09     0.455804           0      -1.0000000   0.00198655   0.00198655     -13.9259
034                  5324       3208.4497       55584.199       8649.6533       73046.023       55584.199       8649.6533       73046.023  0.000228063    0.0272930  0.000269802  0.000258265   0.00719221     -14.4162   4.2228974e+09   5.7277376e+09     0.455804           0      -1.0000000   0.00198655   0.00198655     -14.2569
034                  6550       909.82184       68756.016       13334.818       73503.320       68756.016       13334.818       73503.320  0.000936001      1.00465  0.000197475  0.000242331     0.310278     -16.8388   5.2461577e+09   5.7277376e+09     0.909129           0      -1.0000000   0.00198655   0.00198655     -16.5926
034                  7286       1128.6038       68718.562       13891.751       73603.242       68718.562       13891.751       73603.242   0.00192066     0.927994   0.00158064  0.000524266     0.418885     -17.0399   5.2478954e+09   5.7277376e+09     0.959384           0      -1.0000000   0.00198655   0.00198655     -17.0152
034                  7474       3851.3113       69278.297       13630.626       70596.500       69278.297       13630.626       70596.500   0.00163212     0.857087   0.00162434   0.00115481     0.267656     -16.5770   5.2655445e+09   5.7277376e+09     0.858691           0      -1.0000000   0.00198655   0.00198655     -16.5869
034                  7519       454.08033       26782.615       9708.2031       70207.906       26782.615       9708.2031       70207.906   0.00112483     0.795379  0.000523214  1.78494e-06     0.297457     -16.9024   2.0487101e+09   5.7277376e+09     0.787680           0      -1.0000000   0.00198655   0.00198655     -16.7587
034                  9755       1205.1115       25957.047       10136.985       70842.844       25957.047       10136.985       70842.844   0.00182415     0.756836   0.00105883   0.00112725     0.261559     -16.3239   1.9944780e+09   5.7277376e+09     0.732397           0      -1.0000000   0.00198655   0.00198655     -16.3184
034                 10438       3042.5561       25131.762       12108.887       70586.273       25131.762       12108.887       70586.273  0.000544123     0.527458  0.000594271  0.000506483    0.0842902     -15.3829   1.9441022e+09   5.7277376e+09     0.497745           0      -1.0000000   0.00198655   0.00198655     -15.2508
034                 10439       3018.2585       25169.107       12092.342       70562.547       25169.107       12092.342       70562.547  0.000261407    0.0973477  0.000177956  0.000151504    0.0413804     -14.6988   1.9466123e+09   5.7277376e+09     0.497745           0      -1.0000000   0.00198655   0.00198655     -14.3994
034                 12855       3468.0242       27762.887       10657.241       73515.219       27762.887       10657.241       73515.219  0.000592199     0.610580  0.000397929  0.000215406     0.176160     -15.1386   2.1535060e+09   5.7277376e+09     0.575151           0      -1.0000000   0.00198655   0.00198655     -15.0515
034                 13036       3892.7082       50447.789       7909.1377       74264.539       50447.789       7909.1377       74264.539  0.000629748     0.557195  0.000980644  8.98854e-05    0.0608614     -15.3360   3.8417566e+09   5.7277376e+09     0.446931           0      -1.0000000   0.00198655   0.00198655     -15.3843
034                 13704       1136.0577       27416.107       9214.3545       69103.133       27416.107       9214.3545       69103.133  0.000495687     0.568379  0.000219795  0.000241259     0.152270     -14.9001   2.0845691e+09   5.7277376e+09     0.600091           0      -1.0000000   0.00198655   0.00198655     -14.7359
034                 14371       3946.6897       7606.3037       8745.2881       64503.273       7606.3037       8745.2881       64503.273  0.000246826     0.537542  0.000114833  0.000204032    0.0986783     -14.5456   5.6113669e+08   5.7277376e+09     0.503484           0      -1.0000000   0.00198655   0.00198655     -14.3994
034                 15100       2183.3689       24545.270       11215.938       69637.117       24545.270       11215.938       69637.117  0.000320335     0.506595  0.000188624      0.00000     0.132001     -15.2716   1.8869083e+09   5.7277376e+09     0.456743           0      -1.0000000   0.00198655   0.00198655     -15.0256
034                 15182       3506.4650       20745.219       11955.147       68250.812       20745.219       11955.147       68250.812   0.00107753     0.544493  0.000959726  0.000768474     0.137596     -16.3314   1.5965473e+09   5.7277376e+09     0.568528           0      -1.0000000   0.00198655   0.00198655     -16.2108
034                 15576       2174.9272       26659.619       10852.304       68704.273       26659.619       10852.304       68704.273  0.000311568     0.473520  0.000100072  5.32351e-07    0.0552923     -14.3942   2.0360089e+09   5.7277376e+09     0.302356           0      -1.0000000   0.00198655   0.00198655     -14.2294
034                 17037       2696.4700       37428.855       11660.508       73550.844       37428.855       11660.508       73550.844  0.000466761     0.488550  0.000465984  0.000374226     0.121322     -15.3681   2.8855613e+09   5.7277376e+09     0.460472           0      -1.0000000   0.00198655   0.00198655     -15.1658
034                 17082       3059.2662       55126.703       8767.1377       73224.352       55126.703       8767.1377       73224.352  0.000398521     0.473170  0.000523768  2.74605e-05    0.0853313     -15.8984   4.1907237e+09   5.7277376e+09     0.473250           0      -1.0000000   0.00198655   0.00198655     -15.6411
034                 17108       3282.7710       22781.525       11503.248       67791.953       22781.525       11503.248       67791.953   0.00104992     0.488650  0.000831591  0.000172151     0.138475     -15.9478   1.7427477e+09   5.7277376e+09     0.495861           0      -1.0000000   0.00198655   0.00198655     -15.8512
034                 17255       1074.6606       68722.383       13707.420       73509.789       68722.383       13707.420       73509.789  0.000183590     0.372563  4.14563e-05  2.30580e-05    0.0553264     -14.0341   5.2462242e+09   5.7277376e+09     0.280412           0      -1.0000000   0.00198655   0.00198655     -13.7629
034                 18123       1792.5645       6790.2300       5640.1978       68033.031       6790.2300       5640.1978       68033.031  0.000176207     0.419815  7.12276e-05      0.00000    0.0556941     -13.4483   5.0523327e+08   5.7277376e+09     0.309781           0      -1.0000000   0.00198655   0.00198655     -13.4662
034                 18408       1773.9100       36639.641       9168.1934       69667.070       36639.641       9168.1934       69667.070  0.000298323     0.421761  0.000202207  0.000180531    0.0889906     -14.8693   2.7802489e+09   5.7277376e+09     0.379727           0      -1.0000000   0.00198655   0.00198655     -14.6334
034                 18568       483.11941       27103.895       9309.9717       70695.352       27103.895       9309.9717       70695.352  0.000178836     0.406265  0.000105128  4.14120e-06    0.0593774     -14.3167   2.0737467e+09   5.7277376e+09     0.340908           0      -1.0000000   0.00198655   0.00198655     -14.0183
034                 18690       1618.8325       34598.480       10981.959       72236.961       34598.480       10981.959       72236.961  0.000469992     0.465293  0.000397072  0.000314207     0.108456     -15.6662   2.6588026e+09   5.7277376e+09     0.472834           0      -1.0000000   0.00198655   0.00198655     -15.4979
034                 19890       3440.9471       21723.465       11424.102       67454.703       21723.465       11424.102       67454.703  0.000558616     0.440949  0.000556871  0.000427546     0.118995     -15.6159   1.6603241e+09   5.7277376e+09     0.466754           0      -1.0000000   0.00198655   0.00198655     -15.4636
034                 22222       437.12875       26894.188       9580.4307       70495.789       26894.188       9580.4307       70495.789  0.000160672     0.347089  5.70506e-05  2.29183e-05    0.0772132     -14.1961   2.0583660e+09   5.7277376e+09     0.319095           0      -1.0000000   0.00198655   0.00198655     -13.7474
034                 22870       1253.3721       35709.645       10178.273       72326.406       35709.645       10178.273       72326.406  0.000282243     0.347047  0.000118605  5.39997e-05    0.0491350     -15.5232   2.7373311e+09   5.7277376e+09     0.232866           0      -1.0000000   0.00198655   0.00198655     -15.1045
034                 23524       227.39153       26995.834       9310.5518       69974.633       26995.834       9310.5518       69974.633  0.000147703     0.314586  0.000157027  0.000146311    0.0420883     -12.8704   2.0602407e+09   5.7277376e+09     0.254398           0      -1.0000000   0.00198655   0.00198655     -13.0180
034                 24350       3217.0551       35832.621       7223.3135       69540.086       35832.621       7223.3135       69540.086  0.000209485     0.376510  0.000176431  2.76155e-05    0.0529197     -14.4145   2.7055095e+09   5.7277376e+09     0.351143           0      -1.0000000   0.00198655   0.00198655     -14.1975
034                 26230       3144.1338       30024.281       6763.9883       71967.992       30024.281       6763.9883       71967.992  0.000411802     0.369898  0.000518701  0.000416360    0.0366920     -14.7543   2.2849615e+09   5.7277376e+09     0.354361           0      -1.0000000   0.00198655   0.00198655     -14.7577
034                 26752       3119.0168       55646.047       8746.5820       72937.859       55646.047       8746.5820       72937.859   0.00111063     0.325967  0.000957071  0.000922184    0.0516146     -16.4223   4.2273856e+09   5.7277376e+09     0.308888           0      -1.0000000   0.00198655   0.00198655     -16.2972
034                 27856       1921.5532       49921.254       10413.656       70798.805       49921.254       10413.656       70798.805  0.000526991     0.338688  0.000220617  0.000266861    0.0798257     -15.1404   3.7933497e+09   5.7277376e+09     0.310141           0      -1.0000000   0.00198655   0.00198655     -14.9050
034                 29153       3042.2269       62421.406       15536.323       74032.352       62421.406       15536.323       74032.352  0.000254025     0.307838  0.000227507  0.000181437    0.0477353     -14.1142   4.7900400e+09   5.7277376e+09     0.302454           0      -1.0000000   0.00198655   0.00198655     -14.1085
034                 29417       3579.3605       46734.316       7476.7734       71968.500       46734.316       7476.7734       71968.500  0.000299564     0.280756  0.000377484  0.000302425    0.0294889     -15.1966   3.5430779e+09   5.7277376e+09     0.195363           0      -1.0000000   0.00198655   0.00198655     -15.0278
034                 29429       3604.6037       1260.6796       8429.9990       70937.555       1260.6796       8429.9990       70937.555  0.000309800     0.322539  0.000295263  0.000227576    0.0826791     -15.3906   1.3132229e+08   5.7277376e+09     0.327409           0      -1.0000000   0.00198655   0.00198655     -15.1084
034                 29493       2761.0649       28022.049       7805.5767       72581.891       28022.049       7805.5767       72581.891  0.000354142     0.239416  9.44414e-05  6.92940e-05    0.0378331     -14.8182   2.1465001e+09   5.7277376e+09     0.158510           0      -1.0000000   0.00198655   0.00198655     -14.4766
034                 30081       2877.5588       38285.543       9868.4189       74184.227       38285.543       9868.4189       74184.227  0.000563741     0.314506  0.000393695  0.000251606    0.0670381     -15.3807   2.9423445e+09   5.7277376e+09     0.291657           0      -1.0000000   0.00198655   0.00198655     -15.1002
034                 30303       2866.8896       48324.102       12922.694       74664.484       48324.102       12922.694       74664.484  0.000229207     0.267547  4.79385e-05  1.82278e-06    0.0582409     -14.6234   3.7196629e+09   5.7277376e+09     0.268912           0      -1.0000000   0.00198655   0.00198655     -14.2600
034                 30633       1964.9232       23787.355       10929.858       69590.297       23787.355       10929.858       69590.297  0.000227167     0.270023  0.000215865  0.000183544    0.0333147     -15.1964   1.8277630e+09   5.7277376e+09     0.224370           0      -1.0000000   0.00198655   0.00198655     -14.8557
034                 32378       3203.4581       5298.6123       7608.7246       64828.215       5298.6123       7608.7246       64828.215  0.000532518     0.304470  0.000468615  1.93587e-05    0.0643154     -14.8448   3.8274760e+08   5.7277376e+09     0.301744           0      -1.0000000   0.00198655   0.00198655     -14.8116
034                 33041       3872.0962       15149.601       9670.4199       72628.625       15149.601       9670.4199       72628.625  0.000269643     0.270692  0.000294196  0.000263780    0.0173718     -13.8577   1.1941318e+09   5.7277376e+09     0.189238           0      -1.0000000   0.00198655   0.00198655     -13.8386
034                 33214       2540.4929       36704.863       8813.2979       68986.977       36704.863       8813.2979       68986.977  0.000186907     0.293391  0.000165189  0.000164254    0.0534443     -14.0109   2.7776201e+09   5.7277376e+09     0.280430           0      -1.0000000   0.00198655   0.00198655     -13.8511
034                 33719       688.63240       27814.086       8853.9131       69791.531       27814.086       8853.9131       69791.531  0.000453532     0.292212  0.000385801  0.000318857    0.0404405     -15.6355   2.1171229e+09   5.7277376e+09     0.295714           0      -1.0000000   0.00198655   0.00198655     -15.5094
034                 33928       717.39595       26352.779       9604.5674       70744.508       26352.779       9604.5674       70744.508  0.000252951     0.263965  0.000337826  0.000288606    0.0325204     -14.6211   2.0197903e+09   5.7277376e+09     0.233023           0      -1.0000000   0.00198655   0.00198655     -14.5281
034                 34196       3441.2435       24640.527       11538.414       67578.469       24640.527       11538.414       67578.469  0.000337019     0.289063  0.000260414  0.000191898    0.0351814     -16.4108   1.8808115e+09   5.7277376e+09     0.262128           0      -1.0000000   0.00198655   0.00198655     -16.5348
034                 34806       1060.2017       27789.912       8289.0117       70130.859       27789.912       8289.0117       70130.859  0.000215934     0.266946  8.76363e-05  9.50106e-05    0.0598818     -14.7250   2.1140032e+09   5.7277376e+09     0.247770           0      -1.0000000   0.00198655   0.00198655     -14.4393
034                 36726       3695.7113       15172.331       11745.368       70138.086       15172.331       11745.368       70138.086  0.000248824     0.279456  0.000139653  0.000155178    0.0269700     -15.7462   1.1913049e+09   5.7277376e+09     0.221321           0      -1.0000000   0.00198655   0.00198655     -15.8554
034                 37141       2936.2932       25562.367       12054.316       69622.031       25562.367       12054.316       69622.031  0.000247471     0.272697  0.000115091  8.53465e-05    0.0475742     -16.0933   1.9687937e+09   5.7277376e+09     0.267853           0      -1.0000000   0.00198655   0.00198655     -16.3807
034                 38242       2750.3794       54724.672       9034.3486       72820.570       54724.672       9034.3486       72820.570  0.000122957     0.238927  0.000215294  0.000214587    0.0190420     -14.4871   4.1593649e+09   5.7277376e+09     0.202916           0      -1.0000000   0.00198655   0.00198655     -14.2774
034                 38694       3222.8922       20828.127       11599.900       68147.906       20828.127       11599.900       68147.906  0.000330186     0.253034  0.000222580      0.00000    0.0257234     -14.5297   1.5995714e+09   5.7277376e+09     0.236670           0      -1.0000000   0.00198655   0.00198655     -14.3989
034                 38856       1732.1529       15633.677       9624.1045       70129.242       15633.677       9624.1045       70129.242  0.000169742     0.246366  0.000136323  0.000105264    0.0468274     -14.5881   1.2113764e+09   5.7277376e+09     0.231074           0      -1.0000000   0.00198655   0.00198655     -14.2882
034                 39475       1657.1630       7113.4683       5801.2480       68160.570       7113.4683       5801.2480       68160.570  0.000503348     0.259528  0.000611945  0.000512085    0.0369259     -15.1682   5.3153076e+08   5.7277376e+09     0.245025           0      -1.0000000   0.00198655   0.00198655     -15.0609
034                 39671       2066.0216       27784.395       8820.0918       72282.648       27784.395       8820.0918       72282.648  0.000153964     0.262533  0.000169008  9.17066e-05    0.0333343     -13.4478   2.1333488e+09   5.7277376e+09     0.250116           0      -1.0000000   0.00198655   0.00198655     -13.3342
034                 40406       3377.2020       62083.863       9143.9258       74378.336       62083.863       9143.9258       74378.336  0.000430467     0.248843  0.000369958  0.000155565    0.0363011     -14.3417   4.7237346e+09   5.7277376e+09     0.230163           0      -1.0000000   0.00198655   0.00198655     -14.4112
034                 40624       2742.4046       26003.236       11928.715       69927.156       26003.236       11928.715       69927.156  0.000218490     0.225673  0.000118398  8.55710e-05   0.00957133     -13.9059   2.0032909e+09   5.7277376e+09     0.146747           0      -1.0000000   0.00198655   0.00198655     -13.7970
034                 40667       3621.2532       46619.383       7489.6455       71421.547       46619.383       7489.6455       71421.547  0.000224090     0.242647  0.000257792  3.60368e-05    0.0404790     -14.2709   3.5304435e+09   5.7277376e+09     0.237672           0      -1.0000000   0.00198655   0.00198655     -14.1072
034                 40693       3964.0250       15551.599       9808.5469       72727.195       15551.599       9808.5469       72727.195  0.000218157     0.255668  0.000170930  5.06867e-06    0.0365432     -16.0139   1.2259627e+09   5.7277376e+09     0.247901           0      -1.0000000   0.00198655   0.00198655     -16.4464
034                 41775       1173.9107       16081.615       9437.3340       69343.219       16081.615       9437.3340       69343.219  0.000475691     0.248097  0.000305450  0.000276984    0.0245421     -15.5469   1.2378031e+09   5.7277376e+09     0.197471           0      -1.0000000   0.00198655   0.00198655     -15.5055
034                 41816       1554.2768       34450.930       10440.604       72432.328       34450.930       10440.604       72432.328  0.000276151     0.242124  0.000324562  0.000257617    0.0277195     -14.8827   2.6455105e+09   5.7277376e+09     0.220658           0      -1.0000000   0.00198655   0.00198655     -14.6461
034                 44337       2327.1278       34148.566       8286.1123       72569.461       34148.566       8286.1123       72569.461  0.000124626     0.163513  4.50915e-05  0.000144172    0.0117066     -13.5554   2.6091721e+09   5.7277376e+09     0.127970           0      -1.0000000   0.00198655   0.00198655     -13.2971
034                 45549       1325.2609       26460.293       10381.655       70812.664       26460.293       10381.655       70812.664  0.000403352     0.219842  0.000440681  0.000434035    0.0102200     -14.6099   2.0336634e+09   5.7277376e+09     0.176620           0      -1.0000000   0.00198655   0.00198655     -14.5471
034                 45756       2276.3637       33528.789       10864.831       72919.656       33528.789       10864.831       72919.656  0.000350725     0.226857  0.000248093  0.000176381    0.0324893     -14.6345   2.5828974e+09   5.7277376e+09     0.228051           0      -1.0000000   0.00198655   0.00198655     -14.4397
034                 49008       1693.5732       26468.010       9789.7061       71757.047       26468.010       9789.7061       71757.047  0.000143834     0.206756  0.000120155  0.000107842    0.0236909     -13.5894   2.0372890e+09   5.7277376e+09     0.213305           0      -1.0000000   0.00198655   0.00198655     -13.4054
034                 49125       1974.1111       49927.609       10471.136       70710.055       49927.609       10471.136       70710.055  0.000182785     0.211432  7.89768e-05  2.76970e-05    0.0135278     -14.1076   3.7935526e+09   5.7277376e+09     0.133816           0      -1.0000000   0.00198655   0.00198655     -13.7714
034                 50928       2293.9043       26247.971       10251.253       72187.625       26247.971       10251.253       72187.625  0.000214205     0.210371  0.000148944  0.000129809    0.0252661     -14.0739   2.0271623e+09   5.7277376e+09     0.209804           0      -1.0000000   0.00198655   0.00198655     -13.8908
034                 53150       3018.1525       30430.633       6573.9365       70863.211       30430.633       6573.9365       70863.211  0.000331842     0.171127  0.000122480  9.24427e-05    0.0174094     -14.8502   2.3058562e+09   5.7277376e+09     0.152837           0      -1.0000000   0.00198655   0.00198655     -14.5170
034                 54995       1231.3635       27842.328       8113.3774       70237.336       27842.328       8113.3774       70237.336  0.000209893     0.146715  0.000141990  0.000137866    0.0152598     -13.8103   2.1175355e+09   5.7277376e+09     0.157809           0      -1.0000000   0.00198655   0.00198655     -13.6571
034                 55077       3541.3496       15758.868       11736.488       69811.328       15758.868       11736.488       69811.328  0.000199464     0.192614  0.000129970  9.06313e-05    0.0156227     -13.6523   1.2327840e+09   5.7277376e+09     0.179149           0      -1.0000000   0.00198655   0.00198655     -13.6486
034                 55554       2883.9084       40702.387       11160.310       68749.953       40702.387       11160.310       68749.953  0.000147780     0.194301  0.000110565  7.86870e-05    0.0252888     -13.4706   3.0916591e+09   5.7277376e+09     0.164663           0      -1.0000000   0.00198655   0.00198655     -13.3218
034                 56712       2796.1805       8223.2324       8115.7124       65571.703       8223.2324       8115.7124       65571.703  0.000334495     0.188295  0.000139892  0.000135099    0.0385649     -14.8289   6.1112700e+08   5.7277376e+09     0.208939           0      -1.0000000   0.00198655   0.00198655     -14.4967
034                 61229       2877.8818       24891.355       7574.8569       72443.766       24891.355       7574.8569       72443.766  0.000237867     0.113156  0.000159075  8.88560e-05    0.0107786     -14.1883   1.9090891e+09   5.7277376e+09    0.0857295           0      -1.0000000   0.00198655   0.00198655     -13.9904
034                 61814       2673.5557       69024.312       15776.449       74344.617       69024.312       15776.449       74344.617  0.000348546     0.158055  0.000304377  0.000278718    0.0129094     -15.0380   5.2892372e+09   5.7277376e+09     0.149928           0      -1.0000000   0.00198655   0.00198655     -14.7688
034                 62728       2878.4196       25129.779       6647.4756       71517.086       25129.779       6647.4756       71517.086  0.000368947     0.148033  0.000108254  7.72608e-05   0.00898424     -16.6271   1.9136977e+09   5.7277376e+09    0.0973897           0      -1.0000000   0.00198655   0.00198655     -17.0906
034                 63643       3563.8340       37689.902       11659.643       74571.289       37689.902       11659.643       74571.289  0.000307509     0.167178  0.000294585  0.000320035    0.0272415     -13.6699   2.9127873e+09   5.7277376e+09     0.162224           0      -1.0000000   0.00198655   0.00198655     -13.8212
034                 68079       4017.5952       33840.137       6189.0811       72446.875       33840.137       6189.0811       72446.875  0.000187036     0.163356  0.000113880 -5.95616e-24    0.0252436     -14.3006   2.5708225e+09   5.7277376e+09     0.164550           0      -1.0000000   0.00198655   0.00198655     -14.1056
034                 69535       3116.8798       33409.383       7459.7275       72834.938       33409.383       7459.7275       72834.938  0.000193446     0.162539  0.000132451  8.96159e-05    0.0102247     -13.8541   2.5500899e+09   5.7277376e+09     0.126576           0      -1.0000000   0.00198655   0.00198655     -13.7182
034                 70154       3288.1822       27882.789       10125.947       73507.867       27882.789       10125.947       73507.867  0.000165073     0.155881  0.000167232  0.000179301    0.0135085     -12.9659   2.1588211e+09   5.7277376e+09     0.139706           0      -1.0000000   0.00198655   0.00198655     -13.0751
034                 72573       3075.1483       33232.910       7437.9897       72744.398       33232.910       7437.9897       72744.398  0.000337852     0.144488  0.000262512  4.21595e-05    0.0138338     -14.4255   2.5360272e+09   5.7277376e+09     0.158161           0      -1.0000000   0.00198655   0.00198655     -14.3058
034                 73704       3828.4513       40034.289       7948.3159       68566.141       40034.289       7948.3159       68566.141  0.000175427     0.156625  0.000140484  0.000116820    0.0113448     -13.6034   3.0182732e+09   5.7277376e+09     0.152112           0      -1.0000000   0.00198655   0.00198655     -13.5558
034                 73969       2043.0912       28072.672       7613.6782       71352.109       28072.672       7613.6782       71352.109  0.000206644     0.135474  0.000173723  0.000169568    0.0147722     -13.7210   2.1397651e+09   5.7277376e+09     0.133318           0      -1.0000000   0.00198655   0.00198655     -13.6254
034                 83527       3354.7746       24767.697       11302.110       67472.078       24767.697       11302.110       67472.078  0.000256464     0.133809  0.000221755  0.000211413    0.0119458     -13.9355   1.8879401e+09   5.7277376e+09     0.132550           0      -1.0000000   0.00198655   0.00198655     -13.8794
034                 84576       3989.1691       35116.121       12578.537       67958.086       35116.121       12578.537       67958.086  0.000183918     0.146312  0.000142146  9.64259e-05    0.0149001     -13.9988   2.6764199e+09   5.7277376e+09     0.159686           0      -1.0000000   0.00198655   0.00198655     -13.7506
034                 84753       2152.0177       29576.930       8109.4854       72094.602       29576.930       8109.4854       72094.602  0.000212732     0.137706  0.000197306  0.000235229    0.0105627     -13.2492   2.2615336e+09   5.7277376e+09     0.120493           0      -1.0000000   0.00198655   0.00198655     -13.3985
034                 85398       3232.9496       17623.658       10133.053       66517.844       17623.658       10133.053       66517.844  0.000176423     0.140734  0.000147077  8.81356e-05   0.00435152     -13.5502   1.3370096e+09   5.7277376e+09     0.135735           0      -1.0000000   0.00198655   0.00198655     -13.4934
034                 86657       1067.2302       27268.117       8475.9365       70908.508       27268.117       8475.9365       70908.508  0.000146558     0.122040  7.90796e-05  4.98713e-05    0.0149748     -13.7222   2.0819755e+09   5.7277376e+09     0.124719           0      -1.0000000   0.00198655   0.00198655     -13.5263
034                 89189       3192.4236       27913.014       10071.014       73425.078       27913.014       10071.014       73425.078  0.000246551     0.123468  0.000131835  0.000131014    0.0126394     -14.5023   2.1600925e+09   5.7277376e+09     0.110312           0      -1.0000000   0.00198655   0.00198655     -14.1531
034                 90857       1963.4524       35544.441       8085.9355       71214.203       35544.441       8085.9355       71214.203  0.000141148     0.123762  0.000103057  7.54574e-05    0.0153591     -13.5295   2.7023334e+09   5.7277376e+09     0.128419           0      -1.0000000   0.00198655   0.00198655     -13.3847
034                100720       1628.7305       15488.010       9729.2129       68417.164       15488.010       9729.2129       68417.164  0.000175455     0.118040  7.51872e-05  4.76205e-05   0.00706201     -14.4958   1.1883274e+09   5.7277376e+09     0.108246           0      -1.0000000   0.00198655   0.00198655     -14.1411
034                104310       2657.0555       60547.512       14939.883       74096.078       60547.512       14939.883       74096.078  0.000384663     0.117409  0.000152195  0.000140272    0.0100333     -15.5423   4.6459092e+09   5.7277376e+09     0.109224           0      -1.0000000   0.00198655   0.00198655     -15.1951
034                112330       3896.9212       25594.449       7450.2231       66514.320       25594.449       7450.2231       66514.320  0.000234752     0.108707  4.79535e-05  6.62076e-06   0.00337476     -14.4509   1.9165005e+09   5.7277376e+09    0.0575782           0      -1.0000000   0.00198655   0.00198655     -14.0465
034                112342       1824.1351       11632.517       6230.6802       67842.195       11632.517       6230.6802       67842.195  0.000211657     0.106856  0.000117155  8.64087e-05   0.00361442     -13.6160   8.7099952e+08   5.7277376e+09    0.0908559           0      -1.0000000   0.00198655   0.00198655     -13.6562
034                114476       437.01816       26802.611       9205.4365       69743.422       26802.611       9205.4365       69743.422  0.000213447     0.104441  0.000154498  4.17666e-05   0.00652908     -13.9956   2.0432983e+09   5.7277376e+09    0.0688619           0      -1.0000000   0.00198655   0.00198655     -13.8383
034                115585       3019.8951       24079.635       10715.531       72430.789       24079.635       10715.531       72430.789  0.000146059     0.102874  0.000111751  0.000102604   0.00793507     -12.8672   1.8695264e+09   5.7277376e+09    0.0928575           0      -1.0000000   0.00198655   0.00198655     -12.9926
034                122069       1314.9106       15859.134       9527.6309       68728.000       15859.134       9527.6309       68728.000  0.000302311     0.101237  0.000128918  4.40658e-05   0.00348704     -14.4138   1.2171186e+09   5.7277376e+09     0.102558           0      -1.0000000   0.00198655   0.00198655     -14.2119
034                131091       3687.2352       29811.166       6970.6953       73137.336       29811.166       6970.6953       73137.336  0.000246081    0.0937779  0.000104050  3.02830e-05   0.00492855     -13.9536   2.2791573e+09   5.7277376e+09    0.0722182           0      -1.0000000   0.00198655   0.00198655     -13.8857
034                133905       129.79609       28222.303       9423.1484       70198.219       28222.303       9423.1484       70198.219  0.000188678    0.0961353  3.90988e-05  1.73299e-05   0.00761383     -13.9746   2.1546705e+09   5.7277376e+09    0.0921741           0      -1.0000000   0.00198655   0.00198655     -13.7672
034                160536       957.42860       64872.336       12705.315       73025.031       64872.336       12705.315       73025.031  0.000161266    0.0795029  1.62662e-05  6.63808e-06   0.00286357     -13.9391   4.9470025e+09   5.7277376e+09    0.0745641           0      -1.0000000   0.00198655   0.00198655     -13.6587
034                164096       1818.1398       23723.773       10799.088       69961.328       23723.773       10799.088       69961.328  0.000257610    0.0777658  4.42819e-05  1.80379e-05   0.00522663     -14.7262   1.8248855e+09   5.7277376e+09    0.0679242           0      -1.0000000   0.00198655   0.00198655     -14.3557
034                168306       3696.2574       26501.145       8904.9980       73847.711       26501.145       8904.9980       73847.711  0.000213283    0.0788527  6.02879e-05  5.18066e-05   0.00603410     -13.7869   2.0494220e+09   5.7277376e+09    0.0642736           0      -1.0000000   0.00198655   0.00198655     -13.7342
034                252286       3075.3634       25191.453       11471.160       68050.609       25191.453       11471.160       68050.609  0.000207306    0.0553299  2.96230e-05  3.53950e-05  0.000585905     -14.0733   1.9252134e+09   5.7277376e+09    0.0484270           0      -1.0000000   0.00198655   0.00198655     -13.7778
034                313240       3080.2971       28050.207       9954.1611       73349.781       28050.207       9954.1611       73349.781  0.000130219    0.0437351  8.22884e-05      0.00000      0.00000     -14.1792   2.1690206e+09   5.7277376e+09    0.0393384           0      -1.0000000   0.00198655   0.00198655     -14.0805
034                313245       3494.1547       24859.941       11280.970       72738.977       24859.941       11280.970       72738.977  0.000158075    0.0441865  5.12208e-05      0.00000      0.00000     -13.6218   1.9342160e+09   5.7277376e+09    0.0339856           0      -1.0000000   0.00198655   0.00198655     -13.4920
034                 25921       3589.1103       62526.758       14949.980       1422.2253       62526.758       14949.980       76422.225  0.000311723     0.348380  0.000259859  0.000190246    0.0707925     -15.1326   4.8118676e+09   5.7277376e+09     0.348730           0      -1.0000000   0.00198655   0.00198655     -14.8566
034                 28193       3951.6510       52498.863       12960.456       1489.3528       52498.863       12960.456       76489.353  0.000189904    0.0288073  0.000195353  0.000166245    0.0137088     -13.4198   4.0467140e+09   5.7277376e+09     0.278252           0      -1.0000000   0.00198655   0.00198655     -13.4479
034                 33184       3871.6605       52502.320       12967.009       1401.6277       52502.320       12967.009       76401.628  0.000222525     0.279602  0.000188953  0.000138197    0.0310305     -13.6239   4.0463601e+09   5.7277376e+09     0.179989           0      -1.0000000   0.00198655   0.00198655     -13.6108
034                 50568       3214.3483       74581.812       12860.423       3096.2192       74581.812       12860.423       78096.219  0.000391550     0.210664  0.000407860  9.36955e-05    0.0180576     -14.4857   5.7143047e+09   5.7277376e+09     0.177093           0      -1.0000000   0.00198655   0.00198655     -14.4077
