###  /n/ghernquist/Illustris/Runs/L75n1820FP/output/
###  snapnum, shindex, D_KPC, x_0, y_0, z_0, x_new, y_new, z_new, Mstar, Mhalo, Zgas, Zstar, SFR, Bband, t_num, t_den, groupM200, isneargroup, mingroupdist, massive10Mpc, massive3Mpc, rband 
108                450955       668.74527       69897.086       26600.975       37626.883       69897.086       26600.975       37626.883    0.0965004      13.4395   0.00407517   0.00566454     0.457705     -18.8430   5.3413905e+09   5.7277376e+09      13.1041           0       18249.818      70.7247      70.7247     -19.3141
108                450957       620.22243       69975.750       26728.869       37613.953       69975.750       26728.869       37613.953  0.000940102     0.707023  0.000413743  0.000421863   0.00399708     -13.2019   5.3480654e+09   5.7277376e+09      13.1041           0       18286.698      70.7247      70.7247     -13.7876
108                450961       612.93919       69917.719       26583.865       37562.336       69917.719       26583.865       37562.336  0.000240784    0.0804840      0.00000      0.00000      0.00000     -11.1828   5.3423372e+09   5.7277376e+09      13.1041           0       18183.323      70.7247      70.7247     -11.8643
108                513364       344.84369       61925.289       25843.352       35941.293       61925.289       25843.352       35941.293    0.0344059      5.96873   0.00310375   0.00648811     0.113081     -17.4635   4.7256982e+09   5.7277376e+09      7.36120           0       18786.555      277.090      70.7247     -17.9990
108                513365       274.58315       61935.758       25888.135       35998.676       61935.758       25888.135       35998.676   0.00847810      1.29514   0.00145741   0.00345850    0.0401125     -15.6353   4.7272191e+09   5.7277376e+09      7.36120           0       18834.783      277.090      70.7247     -16.2247
108                513366       397.14053       61972.055       25832.098       35889.113       61972.055       25832.098       35889.113  0.000756348     0.559329  0.000449326   0.00278765   0.00698199     -12.2222   4.7287376e+09   5.7277376e+09      7.36120           0       18791.187      277.090      70.7247     -13.0264
108                575567       607.76511       26238.732       23038.350       33203.234       26238.732       23038.350       33203.234   0.00713754      2.73254   0.00132252   0.00142246    0.0439397     -16.1450   2.0095460e+09   5.7277376e+09      2.96271           0       11915.547      2605.19      70.7247     -16.4968
108                575568       606.78224       26208.961       23040.059       33197.711       26208.961       23040.059       33197.711   0.00136534     0.321699  0.000468192  0.000642516    0.0219264     -13.8978   2.0072834e+09   5.7277376e+09      2.96271           0       11912.909      2605.19      70.7247     -14.3667
108                610105       609.89892       69681.516       26402.453       37439.875       69681.516       26402.453       37439.875   0.00355449      1.91749   0.00107070   0.00265238    0.0177939     -15.4590   5.3224666e+09   5.7277376e+09      2.59500           0       18054.535      277.090      70.7247     -15.7692
108                610106       638.64217       69694.742       26381.232       37459.941       69694.742       26381.232       37459.941   0.00109524     0.319199  0.000477384   0.00209661   0.00516283     -13.9803   5.3234645e+09   5.7277376e+09      2.59500           0       18055.742      277.090      70.7247     -14.2347
108                624197       70.920194       70217.281       26802.029       37082.953       70217.281       26802.029       37082.953    0.0134184      2.33039   0.00246434   0.00263983    0.0295418     -16.3330   5.3626965e+09   5.7277376e+09      2.29356           0       17840.616      70.7247      70.7247     -16.8434
108                641695       557.72462       72411.055       26484.232       37148.480       72411.055       26484.232       37148.480   0.00951893      2.00907   0.00218318   0.00160740    0.0440409     -15.9269   5.5255542e+09   5.7277376e+09      2.07363           0       17280.053      70.7247      70.7247     -16.4505
108                646539       520.80015       31454.301       22797.148       33061.266       31454.301       22797.148       33061.266  0.000947607      1.54030  0.000590858  0.000848017   0.00394363     -13.8004   2.3980043e+09   5.7277376e+09      1.34349           0       14020.091      2605.19      70.7247     -14.2412
108                646540       618.05943       31451.455       22721.328       32954.805       31451.455       22721.328       32954.805  0.000329683     0.616524  0.000345823  0.000364599  0.000767739     -11.8162   2.3964755e+09   5.7277376e+09      1.34349           0       14127.742      2605.19      70.7247     -12.4629
108                651226       587.25900       21094.180       22946.350       32249.143       21094.180       22946.350       32249.143   0.00378602      1.98525   0.00152328   0.00180625    0.0363878     -15.6066   1.6159216e+09   5.7277376e+09      1.98702           0       12852.610      2605.19      70.7247     -15.9086
108                651658       451.13744       59038.180       26266.541       35993.230       59038.180       26266.541       35993.230   0.00459424      1.86489   0.00112847   0.00120615    0.0269284     -15.8117   4.5124399e+09   5.7277376e+09      1.87386           0       18326.791      277.090      70.7247     -16.0679
108                651845       539.81194       73298.938       27517.473       37700.258       73298.938       27517.473       37700.258   0.00957355      1.85017   0.00237355   0.00255748    0.0228280     -15.3480   5.6033286e+09   5.7277376e+09      1.79555           0       18218.751      70.7247      70.7247     -16.0686
108                667632       552.46516       37338.609       24358.934       33519.941       37338.609       24358.934       33519.941   0.00410385      1.63328   0.00123090  0.000949840    0.0367003     -15.0531   2.8534161e+09   5.7277376e+09      1.51471           0       16826.495      165.020      70.7247     -15.5886
108                708041       515.48203       69946.477       26772.908       37510.734       69946.477       26772.908       37510.734   0.00205125      1.07658  0.000967918   0.00111463   0.00965286     -14.0171   5.3453960e+09   5.7277376e+09      1.09199           0       18235.676      70.7247      70.7247     -14.6159
108                712951       414.40416       21586.049       22417.287       31742.154       21586.049       22417.287       31742.154   0.00143701      1.01183  0.000517160  0.000505798   0.00421871     -13.3396   1.6454021e+09   5.7277376e+09     0.964633           0       13458.648      2605.19      70.7247     -13.9918
108                744084       649.75057       61563.078       25443.656       35912.793       61563.078       25443.656       35912.793  0.000505978     0.855762  0.000370891      0.00000      0.00000     -13.2697   4.6955935e+09   5.7277376e+09     0.857060           0       18280.784      277.090      70.7247     -13.5210
108                747947       275.95305       21507.283       22643.998       32004.703       21507.283       22643.998       32004.703   0.00111088     0.779697  0.000579661  0.000657918   0.00147934     -12.5398   1.6430096e+09   5.7277376e+09     0.760156           0       13136.260      2605.19      70.7247     -13.3582
108                756852       591.35801       55147.316       25214.389       36049.828       55147.316       25214.389       36049.828  0.000229069     0.935675  0.000457535      0.00000      0.00000     -12.2814   4.2138759e+09   5.7277376e+09     0.891648           0       16813.855      212.957      70.7247     -12.6937
108                757446       153.35943       19933.582       22138.490       31906.818       19933.582       22138.490       31906.818  0.000298437     0.876449  0.000295305  0.000273723   0.00314796     -13.0344   1.5208012e+09   5.7277376e+09     0.855569           0       13964.036      2605.19      302.945     -13.2436
108                765257       165.25275       66153.586       26557.533       36476.016       66153.586       26557.533       36476.016  0.000572097     0.832792  0.000859187  0.000462865   0.00121128     -12.9969   5.0517003e+09   5.7277376e+09     0.728459           0       18724.823      277.090      70.7247     -13.5287
108                772754       578.53667       70888.383       26620.617       36576.004       70888.383       26620.617       36576.004  0.000914869     0.733914  0.000683757  0.000316801   0.00338336     -13.0246   5.4079901e+09   5.7277376e+09     0.703198           0       17174.195      70.7247      70.7247     -13.6177
108                791096       548.21006       70043.273       26630.100       37518.914       70043.273       26630.100       37518.914  0.000642302     0.542278  0.000678831  0.000700714  0.000557145     -12.6204   5.3517434e+09   5.7277376e+09     0.515654           0       18139.723      70.7247      70.7247     -13.3073
108                791470       506.31047       6613.0293       20648.561       30962.318       6613.0293       20648.561       30962.318   0.00105414     0.638193   0.00111687  0.000222263   0.00111928     -12.7551   5.0451741e+08   5.7277376e+09     0.625026           0       14725.046      1374.31      70.7247     -13.5723
108                794312       649.58423       9144.5088       20944.666       30355.014       9144.5088       20944.666       30355.014  0.000243278     0.676299  0.000332131  0.000314469   0.00176301     -12.9169   6.9184249e+08   5.7277376e+09     0.600717           0       15289.340      1272.08      158.263     -13.0955
108                807565       87.736273       70366.109       26764.309       37022.965       70366.109       26764.309       37022.965  0.000169514     0.576772  0.000133936  0.000136224   0.00217761     -10.2601   5.3731516e+09   5.7277376e+09     0.569734           0       17734.324      70.7247      70.7247     -11.0216
108                822200       435.76868       19709.971       21916.629       32255.906       19709.971       21916.629       32255.906  0.000328728     0.568113  0.000471402      0.00000      0.00000     -11.0055   1.5051359e+09   5.7277376e+09     0.506717           0       13970.026      2605.19      302.945     -11.7917
108                835741       267.79510       21535.352       22548.367       31922.637       21535.352       22548.367       31922.637  0.000602251     0.424679  0.000527118  0.000575511  0.000716854     -11.7824   1.6438472e+09   5.7277376e+09     0.406750           0       13253.571      2605.19      70.7247     -12.5747
108                838604       261.55928       55258.055       25215.518       35514.543       55258.055       25215.518       35514.543  0.000246199     0.519381  0.000371150  0.000335062  0.000532162     -10.7380   4.2181743e+09   5.7277376e+09     0.464746           0       16793.281      212.957      70.7247     -11.5106
108                935246       529.62841       26288.176       22382.072       32887.727       26288.176       22382.072       32887.727  0.000162078     0.324376  4.33517e-05      0.00000      0.00000     -10.2632   2.0064134e+09   5.7277376e+09     0.282851           0       12617.328      2605.19      70.7247     -11.0160
